BEN_CMU_CAT;CMU_CAT_LIB;TEC_COL
7;VALEUR INCONNUE;1
0;MUTUELLE LOCALE (CODE DE LA MUTUALITE);0
1;MUTUELLE REGIONALE (CODE DE LA MUTUALITE);0
2;INSTITUTIONS (CODE RURAL);0
3;INSTITUTIONS DONT LE NUMERO > 3C. (CODE DE LA SECURITE SOCIALE);0
4;SOCIETES D ASSURANCES (CODE DES ASSURANCES);0
5;AIDE MEDICALE ETAT;0
6;C2S  (EX-AIDE MEDICALE DEPARTEMENTALE);0
8;INSTITUTIONS (CODE DE LA SECURITE SOCIALE);0
9;MUTUELLE NATIONALE (CODE DE LA MUTUALITE);0
