EPH_COD;EPH_LIB
D03A1;EQUIVALENTS DERMIQUES-EPIDERMIQUES
D03A9;TOUS AUTRES AGENTS CICATRISANTS DES PLAIES
D04;ANTIPRURIGINEUX, ANTIHISTAMINIQUES TOPIQUES ET ANESTHESIQUES ETC INCLUS
D04A;ANTIPRURIGINEUX, ANTIHISTAMINIQUE TOPIQUE ET ANESTHESIQUE ETC INCLUS
D05;MEDICAMENTS NON STERIODIENS CONTRE L'INFLAMMATION CUTANEE
D05A;ANTIPSORIASIQUES TOPIQUES
D05B;ANTIPSORIASIQUES SYSTEMIQUES
D05X;AUTRES MEDICAMENTS NON STEROIDES CONTRE L'INFLAMMATION / IRRITATION CUTANEE
D06;ANTIBIOTIQUES ET ANTIVIRAUX A USAGE TOPIQUE
D06A;ANTIBIOTIQUES A USAGE TOPIQUE
D06D;MEDICAMENTS POUR INFECTION VIRALE A USAGE TOPIQUE
D06D1;ANTIVIRAUX A USAGE TOPIQUE
D06D9;AUTRES MEDICAMENTS A USAGE TOPIQUE UTILISES DANS LES INFECTIONS VIRALES
D07;CORTICOIDES A USAGE TOPIQUE
D07A;CORTICOIDES A USAGE TOPIQUE NON ASSOCIES
D07B;CORTICOIDES A USAGE TOPIQUE EN ASSOCIATION
D07B1;ASSOCIATIONS DE CORTICOIDES AVEC DES ANTIBACTERIENS
D07B2;ASSOCIATIONS DE CORTICOIDES AVEC DES ANTIFONGIQUES
D07B3;ASSOCIATIONS DE CORTICOIDES AVEC DES ANTIBACTERIENS ET DES ANTIFONGIQUES
D07B4;AUTRES ASSOCIATIONS DE CORTICOIDES
D08;ANTISEPTIQUES ET DESINFECTANTS
D08A;ANTISEPTIQUE ET DESINFECTANT
D08A1;ANTISEPTIQUE OU DESINFECTANT CUTANE AUTRE QUE MANUEL
D08A2;ANTISEPTIQUE OU DESINFECTANT CUTANE MANUEL
D10;PREPARATIONS ANTI-ACNEIQUES
D10A;PREPARATIONS ANTI-ACNEIQUES A USAGE TOPIQUE
D10B;PREPARATIONS ANTI-ACNEIQUES ORALES
D11;AUTRES PREPARATIONS DERMATOLOGIQUES
D11A;AUTRE PREPARATION DERMATOLOGIQUE
G;SYSTEME GENITO-URINAIRE ET HORMONES SEXUELLES
G01;ANTI-INFECTIEUX GYNECOLOGIQUES
G01A;TRICHOMONACIDES
G01A1;TRICHOMONACIDES SYSTEMIQUES
G01A2;TRICHOMONACIDES TOPIQUES
G01A3;FORMES COMBINEES DE TRICHOMONACIDES
G01B;ANTIFONGIQUES GYNECOLOGIQUES
G01C;ANTIBIOTIQUES GYNECOLOGIQUES
G01D;ANTISEPTIQUES GYNECOLOGIQUES
G02;AUTRES MEDICAMENTS GYNECOLOGIQUES
G02A;MEDICAMENTS UTEROTONIQUES
G02B;CONTRACEPTIFS TOPIQUES
G02D;INHIBITEURS DE LA PROLACTINE
G02E;INHIBITEURS DU TRAVAIL
G02F;HORMONES SEXUELLES A USAGE TOPIQUE
G02X;AUTRES PRODUITS GYNECOLOGIQUES
G02X1;ANTISPASMODIQUES GYNECOLOGIQUES
G02X9;AUTRE MEDICAMENT GYNECOLOGIQUE
G03;HORMONES SEXUELLES ET APPARENTES D'ACTION SYSTEMIQUE
G03A;CONTRACEPTIFS HORMONAUX SYSTEMIQUES
G03A1;CONTRACEPTIFS MONOPHASIQUES DOSES A MOINS DE 0,050MG D'OESTROGENE
G03A2;CONTRACEPTIFS MONOPHASIQUES DOSES A 0,050MG OU PLUS D'OESTROGENE
G03A3;CONTRACEPTIFS BIPHASIQUES
G03A4;CONTRACEPTIFS TRIPHASIQUES
G03A5;PROGESTATIFS ORAUX NON ASSOCIES
G03A6;CONTRACEPTIFS SYSTEMIQUES D'URGENCE
G03A9;AUTRES CONTRACEPTIFS HORMONAUX SYSTEMIQUES
G03B;ANDROGENES
G03C;ESTROGENES
G03D;PROGESTATIFS
G03E;ANDROGENES + HORMONES SEXUELLES FEMININES
G03F;OESTROGENES + PROGESTATIFS
G03G;GONADOTROPHINES OU AUTRES STIMULANTS DE L'OVULATION
G03J;MODULATEURS SELECTIFS DES RECEPTEURS AUX ESTROGENES (SERMS)
G03X;AUTRES HORMONES SEXUELLES ET ASSIMILES
G04;MEDICAMENTS UROLOGIQUES
G04A;ANTI-INFECTIEUX ET ANTISEPTIQUES URINAIRES
G04A1;ANTIBIOTIQUES URINAIRES
G04A2;QUINOLONES NON HALOGENEES A USAGE URINAIRES
G04A9;AUTRES ANTISEPTIQUES URINAIRES
G04C;MEDICAMENTS CONTRE L'HYPERTROPHIE BENIGNE DE LA PROSTATE (HBP)
G04C2;ANTAGONISTES ALPHA-ADRENERGIQUES CONTRE L'HBP NON ASSOCIES
G04C3;INHIBITEURS DE LA 5 ALPHA-REDUCTASE NON ASSOCIES, CONTRE L HBP
G04C4;ANTAGONISTES ALPHA ET INHIBITEURS DE LA 5 ALPHA-REDUCTASE EN ASSOCIATION
G04C7;INHIBITEURS 5 ALPHA-REDUCTASE ET/OU ANTAGONISTES ALPHA + AUTRES SUBSTANCES
G04C9;AUTRES MEDICAMENTS CONTRE L'HBP
G04D;MEDICAMENTS CONTRE L'INCONTINENCE URINAIRE
G04D4;MEDICAMENTS CONTRE L'INCONTINENCE URINAIRE
G04D8;MEDICAMENTS CONTRE L'INCONTINENCE URINAIRE D'ORIGINE NATURELLE
G04E;MEDICAMENTS CONTRE LES TROUBLES DE L'ERECTION
G04E1;INHIBITEURS DE LA PDE5 CONTRE LES TROUBLES DE L'ERECTION
G04E9;AUTRES MEDICAMENTS CONTRE LES DYSFONCTIONNEMENTS ERECTILES
G04X;AUTRES MEDICAMENTS UROLOGIQUES
H;PREPARATIONS HORMONALES SYSTEMIQUES (HORMONES SEXUELLES EXCLUES)
H01;HORMONES HYPOPHYSAIRES ET HYPOTHALAMIQUES
H01A;ACTH
H01C;HORMONES HYPOTHALAMIQUES
H01C1;HORMONES ENTRAINANT LA LIBERATION DE GONADOTROPHINE
H01C2;ANTIHORMONES DE CROISSANCE
H01C3;HORMONES ENTRAINANT LA LIBERATION D'ANTI-GONADOTROPHINES
H02;CORTICOSTEROIDES A USAGE SYSTEMIQUE
H02A;CORTICOSTEROIDES A USAGE SYSTEMIQUE NON ASSOCIES
H02A1;CORTICOSTEROIDES INJECTABLES NON ASSOCIES
H02A2;CORTICOSTEROIDES ORAUX NON ASSOCIES
H02A3;AUTRES CORTICOSTEROIDES A USAGE SYSTEMIQUE NON ASSOCIES
H02B;CORTICOSTEROIDES A USAGE SYSTEMIQUE EN ASSOCIATION
H03;MEDICAMENTS DE LA THYROIDE
H03A;PREPARATIONS THYROIDIENNES
H03B;ANTITHYROIDIENS
H03C;THERAPEUTIQUE IODEE
H04;AUTRES HORMONES
H04A;CALCITONINES
H04B;GLUCAGON
H04C;HORMONES DE CROISSANCE
H04D;HORMONES ANTIDIURETIQUES
H04E;HORMONES PARATHYROIDES ET ANALOGUES
H04F;HORMONES ANTI-PARATHYROIDIENNES
H04X;AUTRES HORMONES ET PREPARATIONS AVEC ACTIONS SIMILAIRES
J;ANTIINFECTIEUX GENERAUX SYSTEMIQUES
J01;ANTIBACTERIENS SYSTEMIQUES
J01A;TETRACYCLINES ET ASSOCIATIONS
J01B;CHLORAMPHENICOL ET ASSOCIATIONS
J01C;PENICILLINES A LARGE SPECTRE
J01C1;PENICILLINES ORALES A LARGE SPECTRE
J01C2;PENICILLINES INJECTABLES A LARGE SPECTRE
J01D;CEPHALOSPORINES
J01D1;CEPHALOSPORINES ORALES
J01D2;CEPHALOSPORINES INJECTABLES
J01E;TRIMETHOPRIME ET FORMULATIONS SIMILAIRES
J01F;MACROLIDES ET APPARENTES
J01G;FLUOROQUINOLONES
J01G1;FLUOROQUINOLONES ORALES
J01G2;FLUOROQUINOLONES INJECTABLES
J01G9;AUTRES FLUOROQUINOLONES
J01H;PENICILLINES A SPECTRE MOYEN ET ETROIT
J01H1;PENICILLINES A SPECTRE MOYEN ET ETROIT SEULES
J01H2;ASSOCIATIONS PENICILLINE/STREPTOMYCINE
J01K;AMINOSIDES
J01L;CARBENICILLINE ET APPARENTES
J01M;RIFAMPICINE, RIFAMYCINE
J01P;AUTRES BETA-LACTAMINES, PENICILLINES ET CEPHALOSPORINES EXCLUES
J01P1;MONOBACTAMS
J01P2;PENEMS ET CARBAPENEMS
J01P3;CARBACEPHEMS
J01P9;AUTRES BETA-LACTAMINES
J01X;AUTRES ANTIBACTERIENS
J01X1;ANTIBACTERIENS GLYCOPEPTIDES
J01X2;POLYMYXINES
J01X9;TOUS AUTRES ANTIBACTERIENS
J02;AGENTS SYSTEMIQUES POUR INFECTIONS FONGIQUES
J02A;AGENT SYSTEMIQUE POUR INFECTIONS FONGIQUES
J03;SULFAMIDES SYSTEMIQUES
J03A;SULFAMIDE SYSTEMIQUE
J04;ANTIMYCOBACTERIENS
J04A;ANTITUBERCULEUX
J04A1;ANTITUBERCULEUX, UNE SEULE SUBSTANCE ACTIVE
J04A2;ANTITUBERCULEUX, KITS, 4 SUBSTANCES ACTIVES OU PLUS
J04A3;ANTITUBERCULEUX, KITS, 3 SUBSTANCES ACTIVES
J04A4;ANTITUBERCULEUX, KITS, 2 SUBSTANCES ACTIVES
J04A5;ANTITUBERCULEUX, DOSE FIXE, 4 SUBSTANCES ACTIVES OU PLUS
J04A6;ANTITUBERCULEUX, DOSE FIXE, 3 SUBSTANCES ACTIVES
J04A7;ANTITUBERCULEUX, DOSE FIXE, 2 SUBSTANCES ACTIVES
J04A9;ANTITUBERCULEUX, AUTRES
J04B;ANTILEPREUX
J05;ANTIVIRAUX A USAGE SYSTEMIQUE
J05B;AUTRES ANTIVIRAUX
J05B2;HORS D'USAGE
J05B3;ANTIVIRAUX CONTRE L'HERPES
J05B4;ANTIVIRAUX CONTRE LA GRIPPE
J05B5;ANTIVIRAUX RESPIRATOIRES, AUTRE
J05B6;ANTIVIRAUX CONTRE LE CORONAVIRUS
J05B9;AUTRES ANTIVIRAUX
J05C;MEDICAMENTS ANTIVIRAUX CONTRE LE VIH
J05C1;INHIBITEURS DE LA TRANSCRIPTASE REVERSE NUCLEOSIDIQUES ET NUCLEOTIDIQUES
J05C2;INHIBITEURS DE PROTEASE
J05C3;INHIBITEURS DE LA TRANSCRIPTASE REVERSE NON NUCLEOSIDIQUES
J05C4;MEDICAMENTS CONTRE LE VIH INHIBITEURS DE FUSION/D'ENTREE
J05C5;INHIBITEURS D'INTEGRASES ANTI VIH
J05C9;AUTRES ANTIVIRAUX VIH
J05D;ANTIVIRAUX CONTRE LES HEPATITES
J05D1;INTERFERON ET RIBAVIRINE ANTIVIRAUX CONTRE LES HEPATITES
J05D2;ANTIVIRAUX CONTRE LES HEPATITES B
J05D3;ANTIVIRAUX CONTRE LES HEPATITES C
J05D9;AUTRES ANTIVIRAUX CONTRE LES HEPATITES
J06;SERUMS ET GAMMAGLOBULINES
J06A;SERUMS ANTITOXINE
J06A1;SERUM ANTIVENIMEUX
J06A2;SERUM ANTIBOTULIQUE
J06A3;SERUM ANTIGANGRENEUX
J06A4;SERUM ANTITETANIQUE
J06A5;SERUM ANTIDIPHTERIQUE
J06A6;SERUM ANTIRABIQUE
J06A9;AUTRES SERUMS ANTITOXINE
J06C;IMMUNOGLOBULINES POLYVALENTES, INTRAVEINEUSES
J06D;GLOBULINES HOMOLOGUES IMMUNOLOGIQUEMENT ACTIVES, INTRAVEINEUSES
J06D1;GLOBULINES HUMORALES
J06D2;GLOBULINES CELLULAIRES
J06E;IMMUNOGLOBULINES POLYVALENTES, INTRAMUSCULAIRES
J06F;IMMUNOGLOBULINES POLYVALENTES, ASSOCIATION, INTRAMUSCULAIRES PRINCIPALEMENT
J06G;IMMUNOGLOBULINES SPECIFIQUES - ANTIBACTERIENNES
J06G1;IMMUNOGLOBULINES ANTITETANIQUES
J06G2;IMMUNOGLOBULINES ANTI BORTEDELLA PERTUSSIS
J06G9;AUTRES IMMUNOGLOBULINES ANTIBACTERIENNES
J06H;IMMUNOGLOBULINES SPECIFIQUES, ANTIVIRALES
J06H1;IMMUNOGLOBULINES ANTI OREILLONS
J06H2;IMMUNOGLOBULINES ANTI ROUGEOLE
J06H3;IMMUNOGLOBULINES ANTI RUBEOLE
J06H4;IMMUNOGLOBULINES ANTI HEPATITE
J06H5;IMMUNOGLOBULINES ANTIRABIQUES
J06H9;AUTRES IMMUNOGLOBULINES ANTIVIRALES
J06J;AUTRES IMMUNOGLOBULINES SPECIFIQUES
J07;VACCINS
J07B;ASSOCIATIONS DE VACCINS
J07B1;ASSOCIATIONS AVEC TETANOS
J07B2;ASSOCIATIONS AVEC ROUGEOLE ET/OU OREILLONS
J07B3;AUTRES ASSOCIATIONS
J07D;VACCINS ANTI BACTERIENS
J07D1;VACCIN ANTI PNEUMOCOQUE
J07D2;VACCINS ANTI MENINGOCOQUE
J07D3;VACCIN ANTI HAEMOPHILUS B
J07D4;VACCIN ANTI THYPHOIDE
J07D5;VACCIN ANTI TETANIQUE
J07D6;VACCIN ANTI TUBERCULOSE / TUBERCULINE
J07D7;VACCIN ANTI CHOLERIQUE
J07D9;AUTRES VACCINS BACTERIENS
J07E;VACCINS ANTI VIRAUX
J07E1;VACCIN ANTI GRIPPE / INFLUENZA
J07E2;VACCIN ANTI VARICELLE
J07E3;VACCIN ANTI PAPILLOMAVIRUS (HPV)
J07E4;VACCIN ANTI HEPATITE
J07E5;VACCIN ANTI ROTAVIRUS
J07E6;VACCINS CONTRE CORONAVIRUS
J07E9;AUTRES VACCINS ANTIVIRAUX
J07F;VACCINS CONTRE PROTOZOAIRES
J07F1;VACCIN ANTI PALUDIQUE
J07F9;AUTRES VACCINS CONTRE PROTOZOAIRES
J07X;AUTRES VACCINS
J08;AUTRES ANTIINFECTIEUX
J08B;ANAEROBICIDES
J08X;AUTRE ANTIINFECTIEUX
K;SOLUTIONS HOSPITALIERES
K01;SOLUTIONS INTRAVEINEUSES
K01A;SOLUTIONS D'ELECTROLYTES (> = 100ML)
K01A1;SOLUTIONS D'ELECTROLYTES NA > 120MMOL/L
K01A2;SOLUTIONS D'ELECTROLYTES NA = 90-120MMOL/L
K01A3;SOLUTIONS D'ELECTROLYTES NA = 61-90MMOL/L
K01A4;SOLUTIONS D'ELECTROLYTES NA <= 60MMOL/L
K01A5;SOLUTIONS D'ELECTROLYTES ADAPTEES (COMPRENANT DU SODIUM)
K01A6;SOLUTIONS D'ELECTROLYTES PEDIATRIQUES
K01A7;SOLUTIONS DE RINGER ET DE RINGER LACTATE
K01A9;AUTRES SOLUTIONS D'ELECTROLYTES
K01B;SOLUTIONS STANDARDS
K01B1;SOLUTIONS DE CHLORURE DE SODIUM
K01B2;SOLUTIONS DE CHLORURE DE SODIUM AVEC DES HYDRATES DE CARBONE
K01B3;SOLUTIONS D'HYDRATES DE CARBONE (< = 10%)
K01B4;EAU POUR PREPARATIONS INJECTABLES
K01C;SOLUTIONS CALORIQUES (>10%)
K01C1;SOLUTIONS AVEC UN HYDRATE DE CARBONE (>10%)
K01C2;SOLUTIONS DE PLUSIEURS HYDRATES DE CARBONE (>10%)
K01C3;SOLUTIONS D'ELECTROLYTES ET HYDRATES DE CARBONE (>10%) EN ASSOCIATION
K01D;EMULSIONS LIPIDIQUES, PRODUITS POUR NUTRITION PARENTERALE TOTALE INCLUS
K01D1;EMULSIONS LIPIDIQUES, NON ASSOCIEES
K01D2;EMULSIONS LIPIDIQUES EN ASSOCIATION
K01E;SOLUTIONS D'ACIDES AMINES
K01E1;SOLUTIONS STANDARD D'ACIDES AMINES
K01E2;SOLUTIONS MULTI LITRE
K01E3;SOLUTIONS UTILISEES EN NEPHROLOGIE
K01E4;SOLUTIONS UTILISEES EN HEPATOLOGIE
K01E5;SOLUTIONS D'ACIDES AMINES PEDIATRIQUES
K01E9;AUTRES SOLUTIONS D'ACIDES AMINES
K01F;SOLUTIONS POUR THERAPEUTIQUE OSMOTIQUE
K01F1;THERAPEUTIQUE OSMOTIQUE
K01F2;SOLUTIONS OSMOTIQUES UTILISEES EN ONCOLOGIE
K01G;SOLUTIONS INJECTABLES SPECIALES
K01G1;SOLUTION POUR THERAPEUTIQUE HEPATIQUE
K01G9;AUTRES SOLUTIONS INJECTABLES
K02;SUBSTITUTS VOLEMIQUES DU PLASMA
K02A;DEXTRANS
K02A1;DEXTRANS DE BAS POIDS MOLECULAIRE (<= 50000)
K02A2;DEXTRANS DE HAUT POIDS MOLECULAIRE (> 50000)
K02B;AMIDONS
K02C;GELATINES
K03;SANG TOTAL ET DERIVES DU PLASMA
K03A;SANG TOTAL ET FRACTIONS PLASMATIQUES
K03B;SOLUTIONS PROTEIQUES
K03B1;SOLUTIONS PROTEIQUES < 5%
K03B2;SOLUTIONS PROTEIQUES = 5%
K03B3;SOLUTIONS PROTEIQUES > 5%
K03C;SERUM HUMAIN CONGELE
K04;SOLUTIONS INJECTABLES < 100ML
K04A;SOLUTIONS D'ELECTROLYTES < 100ML
K04A1;SOLUTIONS D'ELECTROLYTES <= 20ML
K04A2;SOLUTIONS D'ELECTROLYTES > 20ML ET < 100ML
K04B;SOLUTIONS STANDARDS < 100ML
K04B1;SOLUTIONS STANDARDS < 20ML
K04B2;SOLUTIONS STANDARDS > 20ML ET < 100ML
K04C;SOLUTIONS CALORIQUES < 100ML
K04D;AUTRES SOLUTIONS INJECTABLES < 100ML
K05;SOLUTIONS D'IRRIGATION
K05A;SOLUTION D'IRRIGATION
K05A1;EAU
K05A2;SOLUTIONS SALINES
K05A3;CITRATES
K05A4;GLYCINE
K05A9;AUTRES SOLUTIONS D'IRRIGATION
K06;SOLUTIONS POUR DIALYSE
K06A;SOLUTIONS POUR HEMODIALYSE
K06B;SOLUTIONS POUR DIALYSE PERITONEALE
K06C;HEMOFILTRATION
K07;SOLUTIONS POUR PERFUSION
K07A;SOLUTION POUR PERFUSION
L;ANTINEOPLASIQUES ET IMMUNOMODULATEURS
L01;ANTINEOPLASIQUES
L01A;AGENTS ALKYLANTS
L01B;ANTIMETABOLITES
L01C;ANTINEOPLASIQUES D'ORIGINE VEGETALE
L01C1;ANTICANCEREUX ALACALOIDES DE VINCA
L01C2;ANTICANCEREUX TAXANES
L01C3;ANTICANCEREUX DERIVES DE LA CAMPTOTHECINE
L01C4;PODOPHYLLOTOXINE
L01C9;AUTRES ANTICANCEREUX DERIVES DE PLANTES
L01D;ANTIBIOTIQUES ANTINEOPLASIQUES
L01F;ANTICANCEREUX DERIVES DU PLATINE
L01G;ANTICORPS MONOCLONAUX ANTICANCEREUX
L01G1;ANTICANCEREUX ANTICORPS MONOCLONAL CONTRE LE CD20
L01G2;ANTICANCEREUX ANTICORPS MONOCLONAL CONTRE LE VEGF/VEGFR
L01G3;ANTICANCEREUX ANTICORPS MONOCLONAL CONTRE HER-2
L01G4;ANTICANCEREUX ANTICORPS MONOCLONAL DIRIGE CONTRE EGRF
L01G5;ANTICANCEREUX ANTICORPS MONOCLONAL DIRIGE CONTRE PD1 OU PDL1
L01G9;AUTRES ANTICANCEREUX ANTICORPS MONOCLONAUX
L01H;INHIBITEURS DE PROTEINE-KINASE ANTINEOPLASIQUES
A;VOIES DIGESTIVES ET METABOLISME
A01;PREPARATIONS STOMATOLOGIQUES, PREPARATIONS BUCCALES, DENTIFRICES ETC
A01A;PREPARATIONS STOMATOLOGIQUES
A01A1;DENTIFRICES
A01A2;ANTISEPTIQUES ET ANTIINFECTIEUX POUR TRAITEMENT BUCCAL
A01A3;ANTIINFLAMMATOIRES ET ANALGESIQUES POUR TRAITEMENT BUCCAL
A01A4;PREPARATIONS BUCCALES FLUOREES
A01A5;AUTRES PREPARATIONS STOMATOLOGIQUES
A01B;ANTIFONGIQUES BUCCAUX
A02;ANTIACIDES, ANTIFLATULENTS ET ANTI-ULCEREUX
A02A;ANTIACIDES, ANTIFLATULENTS, MEDICAMENTS CARMINATIFS
A02A1;ANTIACIDES NON ASSOCIES
A02A2;ANTIFLATULENTS ET MEDICAMENTS CARMINATIFS NON ASSOCIES
A02A3;ANTIACIDES AVEC ANTISPASMODIQUES
A02A4;ANTIACIDES AVEC ANTIFLATULENTS OU MEDICAMENTS CARMINATIFS
A02A5;ANTIACIDES AVEC ANTIFLATULENTS ET,OU MED. CARMINATIFS ET ANTISPASMODIQUES
A02A6;ANTIACIDES AVEC D'AUTRES SUBSTANCES
A02A7;ANTIFLATULENTS ET,OU MEDICAMENTS CARMINATIFS AVEC D'AUTRES SUBSTANCES
A02B;ANTIULCEREUX
A02B1;ANTIHISTAMINIQUES H2
A02B2;INHIBITEURS DE LA POMPE A PROTONS
A02B3;PROSTAGLANDINES ANTIULCEREUSES
A02B4;ANTIULCEREUX A BASE DE BISMUTH
A02B9;AUTRES ANTIULCEREUX
A02X;AUTRES MEDICAMENTS DES TROUBLES GASTRIQUES
A03;MEDICAMENTS POUR LES TROUBLES GASTRO-INTESTINAUX FONCTIONNELS
A03A;ANTISPASMODIQUES ET ANTICHOLINERGIQUES NON ASSOCIES
A03C;ASSOCIATIONS ANTISPASMODIQUE ET PSYCHOLEPTIQUE
A03D;ASSOCIATIONS ANTISPASMODIQUE ET ANALGESIQUE
A03E;ANTISPASMODIQUES EN ASSOCIATION AVEC D'AUTRES PRODUITS
A03F;MEDICAMENTS DE LA MOTRICITE DIGESTIVE
A03G;MODULATEURS SENSORIMOTEURS GASTRO-INTESTINAUX
A04;ANTIEMETIQUES ET ANTINAUSEEUX
A04A;ANTIEMETIQUE ET ANTINAUSEEUX
A04A1;ANTIEMETIQUES ET, OU ANTINAUSEEUX ANTAGONISTES DE LA SEROTONINE
A04A2;ANTIEMETIQUES, ANTINAUSEEUX ANTAGONISTES NK1
A04A9;AUTRES ANTIEMETIQUES ET ANTINAUSEEUX
A05;MEDICAMENTS CHOLAGOGUES ET HEPATOPROTECTEURS
A05A;THERAPEUTIQUE BILIAIRE ET MEDICAMENTS CHOLAGOGUES
A05A1;CHOLERETIQUES ET CHOLAGOGUES
A05A2;THERAPEUTIQUE DES CALCULS BILIAIRES
A05A9;AUTRES CHOLAGOGUES ET THERAPIES BILIAIRES
A05B;HEPATOPROTECTEURS, LIPOTROPIQUES
A05C;ASSOCIATIONS CHOLAGOGUE ET LIPOTROPIQUE
A06;MEDICAMENTS CONTRE LA CONSTIPATION ET NETTOYANTS INTESTINAUX
A06A;MEDICAMENTS CONTRE LA CONSTIPATION
A06A1;EMOLLIENTS INTESTINAUX
A06A2;LAXATIFS STIMULANTS
A06A3;LAXATIFS DE LEST
A06A4;LAVEMENTS
A06A6;LAXATIFS OSMOTIQUES
A06A7;LAXATIFS OSMOTIQUES AVEC ELECTROLYTES
A06A9;AUTRES MEDICAMENTS CONTRE LA CONSTIPATION
A06B;NETTOYANTS INTESTINAUX
A06B1;NETTOYANTS INTESTINAUX OSMOTIQUES
A06B2;NETTOYANTS INTESTINAUX OSMOTIQUES + ELECTROLYTES
A06B9;AUTRES NETTOYANTS INTESTINAUX
A07;PRODUITS CONTRE LES TROUBLES INTESTINAUX
A07A;ANTIINFECTIEUX INTESTINAUX
A07B;ANTIDIARRHEIQUES ADSORBANTS INTESTINAUX
A07E;ANTIINFLAMMATOIRES INTESTINAUX
A07E1;AMINOSALICYLES INTESTINAUX
A07E2;CORTICOIDES INTESTINAUX
A07E3;MODULATEURS INTESTINAUX D'ADHESION CELLULAIRE
A07E9;AUTRES ANTI-INFLAMMATOIRES INTESTINAUX
A07F;MICRO-ORGANISMES ANTIDIARRHEIQUES
A07G;SOLUTIONS ORALES D'ELECTROLYTES
A07H;IHNIBITEURS DU TRANSIT
A07X;AUTRES PRODUITS CONTRE LES TROUBLES INTESTINAUX
A08;PREPARATIONS CONTRE L'OBESITE, PRODUITS DIETETIQUES EXCLUS
A08A;PREPARATION CONTRE L'OBESITE, PRODUITS DIETETIQUES EXCLUS
A09;MEDICAMENTS DE LA DIGESTION, ENZYMES DIGESTIVES INCLUSES
A09A;MEDICAMENTS DE LA DIGESTION, ENZYMES INCLUSES
A10;MEDICAMENTS DU DIABETE
A10C;INSULINES HUMAINES ET ANALOGUES
A10C1;INSULINES HUMAINES ET ANALOGUES D'ACTION RAPIDE
A10C2;INSULINES HUMAINES ET ANALOGUES D'ACTION INTERMEDIAIRE
A10C3;INSULINES HUMAINES ET ANALOGUES D'ACTION INTERMEDIAIRE OU LONGUE + RAPIDE
A10C4;INSULINES HUMAINES ET ANALOGUES D'ACTION INTERMEDIAIRE + ACTION LENTE
A10C5;INSULINES HUMAINES ET ANALOGUES D'ACTION LENTE
A10C9;AUTRES INSULINES HUMAINES ET ANALOGUES
A10D;INSULINES ANIMALES
A10E;APPAREILS POUR INSULINE
A10H;ANTIDIABETIQUES SULFAMIDES
A10J;ANTIDIABETIQUES BIGUANIDES
A10J1;ANTIDIABETIQUES BIGUANIDES NON ASSOCIES
A10J2;ASSOCIATIONS D'ANTIDIABETIQUES SULFAMIDES ET BIGUANIDES
A10J9;ANTIDIABETIQUES BIGUANIDES ASSOCIES ET AUTRES ANTIDIABETIQUES
A10K;ANTIDIABETIQUES GLITAZONE
A10K1;ANTIDIABETIQUES GLITAZONE NON ASSOCIES
A10K2;ANTIDIABETIQUES GLITAZONE ET SULPHONYLUREA ASSOCIES
A10K3;ANTIDIABETIQUES GLITAZONE ET BIGUANIDE ASSOCIES
A10K9;ASSOCIATIONS D'ANTIDIABETIQUES GLITAZONE AVEC D'AUTRES ANTIDIABETIQUES ORAUX
A10L;ANTIDIABETIQUES INHIBITEURS DE L'ALPHA GLUCOSIDASE
A10M;GLINIDES ANTIDIABETIQUES
A10M1;GLINIDES ANTIDIABETIQUES NON ASSOCIES
A10M3;ANTIDIABETIQUES GLINIDES + BIGUANIDES ASSOCIES
A10M9;GLINIDES + AUTRES ANTIDIABETIQUES
A10N;ANTIDIABETIQUES INHIBITEURS DE LA DPP-IV
A10N1;ANTIDIABETIQUES INHIBITEURS DE LA DPP-IV NON ASSOCIES
A10N3;BIGUANIDES +ANTIDIABETIQUES INHIBITEURS DE LA DDP-IV ASSOCIES
A10N9;ANTIDIABETIQUES INHIBITEURS DE LA DPP-IV + AUTRES ANTIDIABETIQUES
A10P;ANTIDIABETIQUES INHIBITEURS DE SGLT2
A10P1;ANTIDIABETIQUES INHIBITEURS SGLT2
A10P3;ANTIDIABETIQUES ASSOCIATION BIGUIANIDE + INHIBITEUR SGLT2
A10P5;ASSOCIATION ANTIDIABETIQUES INHIBITEUR SGLT2 + INHIBITEUR DPP-IV
A10P9;ANTIDIABETIQUES INHIBITEURS DE SGLT2, AUTRES ASSOCIATIONS
A10S;ANTIDIABETIQUES AGONISTES GLP-1
A10X;AUTRES MEDICAMENTS DU DIABETE
A10X9;AUTRES MEDICAMENTS DU DIABETE
A11;VITAMINES
A11A;POLYVITAMINES AVEC ELEMENTS MINERAUX
A11A1;A USAGE PRENATAL
A11A2;A USAGE PEDIATRIQUE
A11A3;POLYVITAMINES A USAGE GERIATRIQUE
A11A4;AUTRES POLYVITAMINES AVEC ELEMENTS MINERAUX
A11B;POLYVITAMINES SANS ELEMENTS MINERAUX
A11B1;POUR LA PERIODE PRENATALE
A11B2;POLYVITAMINES A USAGE PEDIATRIQUE
A11B3;EN GERIATRIE
A11B4;AUTRES POLYVITAMINES SANS ELEMENTS MINERAUX
A11C;VITAMINES A ET D, ASSOCIATIONS DES DEUX INCLUSES
A11C1;VITAMINE A
A11C2;VITAMINE D
A11C3;ASSOCIATIONS DE VITAMINE A ET DE VITAMINE D
A11D;VITAMINE B1 ET ASSOCIATIONS DES VITAMINES B1, B6, B12
A11D3;VITAMINE B1, NON ASSOCIEE
A11D4;VITAMINE B1 EN ASSOCIATION AVEC VITAMINE B6 ET/OU VITAMINE B12
A11D9;VITAMINE B1, AUTRES ASSOCIATIONS
A11E;COMPLEXE VITAMINIQUE B
A11E1;COMPLEXE VITAMINIQUE B NON ASSOCIE
A11E2;COMPLEXE VITAMINIQUE B AVEC VITAMINE C
A11E3;COMPLEXE VITAMINIQUE B AVEC D'AUTRES SUBSTANCES
A11F;VITAMINE B12 NON ASSOCIEE
A11G;VITAMINE C, ASSOCIATIONS AVEC MINERAUX INCLUSES
A11G1;VITAMINE C NON ASSOCIEE (SELS DE VITAMINE C INCLUS)
A11G2;VITAMINE C, ASSOCIATIONS
A11X;AUTRES VITAMINES
A11X1;NICOTINAMIDE, NON ASSOCIE
A11X2;VITAMINE B6 (PYRIDOXINE), NON ASSOCIEE
A11X3;VITAMINE E, NON ASSOCIEE
A11X9;TOUTES AUTRES VITAMINES, SEULES ET EN ASSOCIATION
A12;SUPPLEMENTATION MINERALE
A12A;CALCIUM
A12B;POTASSIUM
A12C;AUTRES SUPPLEMENTS MINERAUX
A12C1;MAGNESIUM
A12C2;AUTRE SUPPLEMENT MINERAL
A13;TONIQUES
A13A;TONIQUE
A13A1;PREPARATIONS CONTENANT DE LA PROCAINE
A13A2;AUTRES TONIQUES
A14;ANABOLISANTS SYSTEMIQUES
A14A;STEROIDES ANABOLISANTS SYSTEMIQUES
A14A1;STEROIDES ANABOLISANTS NON ASSOCIES SYSTEMIQUES
A14A2;STEROIDES ANABOLISANTS EN ASSOCIATION
A14B;AUTRES AGENTS ANABOLISANTS SYSTEMIQUES
A15;STIMULANTS DE L'APPETIT
A15A;STIMULANT DE L'APPETIT
A16;AUTRES MEDICAMENTS DES VOIES DIGESTIVES ET DU METABOLISME
A16A;AUTRES MEDICAMENTS DES VOIES DIGESTIVES ET DU METABOLISME
B;SANG ET ORGANES HEMATOPOIETIQUES
B01;AGENTS ANTITHROMBOTIQUES
B01A;ANTIVITAMINES K
B01B;HEPARINES
B01B1;HEPARINES NON FRACTIONNEES
B01B2;HEPARINES FRACTIONNEES
B01B3;HEPARINES POUR RINCAGE DE TUBULURES / CATHETERS
B01B9;AUTRES HEPARINES
B01C;INHIBITEURS DE L'AGREGATION PLAQUETTAIRE
B01C1;ANTI-AGREGANTS PLAQUETTAIRES INHIBITEURS DE LA CYCLO-OXYGENASE
B01C2;ANTI-AGREGANTS PLAQUETTAIRES ANTAGONISTES DES RECEPTEURS ADP
B01C3;ANTI-AGREGANTS PLAQUETTAIRES ANTAGONISTES DE GP IIB/IIIA
B01C4;ANTI-AGREGANTS PLAQUETTAIRES AUGMENTANT L'AMPC
B01C5;ANTI-AGREGANTS PLAQUETTAIRES EN ASSOCIATION
B01C9;AUTRES ANTI-AGREGANTS PLAQUETTAIRES
B01D;FIBRINOLYTIQUES
B01E;INHIBITEURS DIRECTS DE LA THROMBINE
B01F;INHIBITEURS DIRECTS DU FACTEUR XA
B01X;AUTRES MEDICAMENTS ANTITHROMBOTIQUES
B02;AUTRES MEDICAMENTS DE LA COAGULATION SANGUINE
B02A;ANTIFIBRINOLYTIQUES
B02A1;ANTIFIBRINOLYTIQUES SYNTHETIQUES
B02A2;PROTEINASE
B02A9;AUTRES ANTIFIBRINOLYTIQUES
B02B;ANTIDOTES DES ANTICOAGULANTS
B02B1;VITAMINE K
B02B2;SULFATE DE PROTAMINE
B02B9;AUTRES ANTIDOTES CONTRE ANTICOAGULANTS
B02C;INHIBITEURS DE LA PROTEINASE
B02C1;INHIBITEURS DE LA COAGULATION
B02C2;INHIBITEURS DU SYSTEME KALLICREINE-KININE
B02C3;INHIBITEURS DE LA FIBRINOLYSE
B02C9;AUTRES INHIBITEURS DE PROTEINASES
B02D;PRODUITS DE COAGULATION SANGUINE
B02D1;FACTEUR VIII, SUBSTITUTS INCLUS
B02D2;FACTEURS II, VII, IX ET X
B02D3;COMPLEXE ANTI-INHIBITEUR DE LA COAGULATION
B02D4;FACTEUR XIII
B02D5;FIBRINOGENE
B02D6;PLASMA FRAIS CONGELE ET PLASMA ANTIHEMOPHILIQUE
B02D7;FRACTION I DE COHN
B02D8;CONCENTRES DE PLAQUETTES
B02D9;AUTRES FRACTIONS SANGUINES
B02E;AGONISTES DE LA THROMBOPOIETINE
B02F;PREPARATIONS POUR REPARATION TISSULAIRE
B02G;HEMOSTATIQUES SYSTEMIQUES
B03;PREPARATIONS ANTI-ANEMIQUES
B03A;MEDICAMENTS HEMATINIQUES, FER ET TOUTES ASSOCIATIONS
B03A1;FER NON ASSOCIE
B03A2;FER EN ASSOCIATION AVEC D'AUTRES SUBSTANCES
B03B;EXTRAITS HEPATIQUES ET ASSOCIATIONS AVEC LA VITAMINE B12
B03C;ERYTHROPOIETINE ET SIMILAIRES
B03D;INHIBITEURS DE HIF-PH
B03X;AUTRES PRODUITS ANTI-ANEMIQUES, ACIDE FOLIQUE ET ACIDE FOLINIQUE INCLUS
B06;AUTRES MEDICAMENTS HEMATOLOGIQUES
B06B;HYALURONIDASE
B06D;MEDICAMENTS CONTRE L'ANGIOEDEME HEREDITAIRE
B06X;AUTRES PRODUITS HEMATOLOGIQUES
C;SYSTEME CARDIOVASCULAIRE
C01;MEDICAMENTS CARDIAQUES
C01A;GLUCOSIDES CARDIOTONIQUES ET ASSOCIATIONS
C01A1;GLUCOSIDES CARDIOTONIQUES NON ASSOCIES
C01A2;GLUCOSIDES CARDIOTONIQUES EN ASSOCIATION
C01B;ANTIARYTHMIQUES
C01C;STIMULANTS CARDIAQUES, GLUCOSIDES CARDIOTONIQUES EXCLUS
C01C1;STIMULANTS CARDIAQUES, MEDICAMENTS DOPAMINERGIQUES EXCLUS
C01C2;MEDICAMENTS CARDIOTONIQUES DOPAMINERGIQUES
C01D;THERAPEUTIQUE CORONARIENNE, ANTAGONISTES CALCIQUES ET DERIVES NITRES EXCLUS
C01E;DERIVES NITRES ET NITRATES
C01F;MEDICAMENTS INOTROPES POSITIFS
C01X;AUTRES MEDICAMENTS CARDIAQUES
C02;ANTIHYPERTENSEURS
C02A;ANTIHYPERTENSEURS (D'ORIGINE NON VEGETALE) NON ASSOCIES
C02A1;ANTIHYPERTENSEURS NON ASSOCIES D'ACTION CENTRALE
C02A2;ANTIHYPERTENSEURS NON ASSOCIES D'ACTION PERIPHERIQUE
C02A3;AUTRES ANTIHYPERTENSEURS NON ASSOCIES
C02B;ANTIHYPERTENSEURS (D'ORIGINE NON VEGETALE) ASSOCIATION AVEC DIURETIQUES
C02B1;ANTIHYPERTENSEURS D'ACTION CENTRALE + DIURETIQUES
C02B2;ANTIHYPERTENSEURS PERIPHERIQUES + DIURETIQUES
C02B3;AUTRES ANTIHYPERTENSEURS + DIURETIQUES
C02C;ALCALOIDES DU RAUWOLFIA ET AUTRES ANTIHYPERTENSEURS D'ORIGINE VEGETALE
C02D;ALCALOIDES DU RAUWOLFIA ET ANTIHYPERTENSEURS D'ORIGINE VEGETALE + DIURETIQUES
C03;DIURETIQUES
C03A;DIURETIQUE
C03A1;MEDICAMENTS EPARGNEURS POTASSIQUES NON ASSOCIES
C03A2;DIURETIQUES DE L'ANSE NON ASSOCIES
C03A3;THIAZIDIQUES ET APPARENTES NON ASSOCIES
C03A4;MEDICAMENTS EPARGNEURS POTASSIQUES EN ASSOCIATION AVEC DIURETIQUES DE L'ANSE
C03A5;EPARGNEURS POTASSIQUES EN ASSOCIATION AVEC THIAZIDIQUE ET,OU APPARENTE
C03A7;DIURETIQUES ANTAGONISTES DU RECEPTEUR A LA VASOPRESSINE
C03A9;AUTRES DIURETIQUES
C04;VASODILATATEURS CEREBRAUX ET PERIPHERIQUES
C04A;VASODIALTATEURS CEREBRAUX ET PERIPHERIQUES
C04A1;VASODILATATEURS CEREBRAUX ET PERIPHERIQUES, ANTAGONISTES DU CALCIUM EXCLUS
C04A2;ANTAGONISTES CALCIQUES AVEC ACTIVITE CEREBRALE
C05;PREPARATIONS ANTIVARICOSIQUES, ANTIHEMORROIDAIRES
C05A;TOPIQUES ANTIHEMORROIDAIRES
C05A1;TOPIQUES ANTIHEMORROIDAIRES AVEC CORTICOIDES
C05A2;TOPIQUES ANTIHEMORROIDAIRES SANS CORTICOIDES
C05B;THERAPEUTIQUE ANTIVARICOSIQUE, A USAGE TOPIQUE
C05C;THERAPEUTIQUE ANTIVARICOSIQUE, A USAGE SYSTEMIQUE
C06;AUTRES MEDICAMENTS CARDIOVASCULAIRES
C06B;MEDICAMENTS CONTRE L'HYPERTENSION ARTERIELLE PULMONAIRE (HTAP)
C06B1;MEDICAMENTS CONTRE L'HTAP ANTAGONISTES DES RECEPTEURS A L'ENDOTHELINE
C06B2;MEDICAMENTS CONTRE L'HTAP INHIBITEURS DE LA PDE5
C06B3;PROSTACYCLINE CONTRE L'HTAP
C06B9;AUTRES MEDICAMENTS CONTRE L'HTAP
C06X;AUTRES MEDICAMENTS CARDIOVASCULAIRES
C07;BETABLOQUANTS
C07A;BETABLOQUANTS NON ASSOCIES
C07B;BETABLOQUANTS EN ASSOCIATION
C07B1;BETA BLOQUANTS + ANTIHYPERTENSEURS ET,OU DIURETIQUES
C07B2;ASSOCIATIONS AVEC D'AUTRES SUBTANCES DU SYSTEME CARDIOVASCULAIRE
C07B3;ASSOCIATIONS AVEC D'AUTRES SUBSTANCES EXCEPTEES CELLES DU SYST. CARDIOVASCUL.
C08;ANTAGONISTES CALCIQUES
C08A;ANTAGONISTES CALCIQUES NON ASSOCIES
C08B;ANTAGONISTES CALCIQUES EN ASSSOCIATION
C08B1;ANTAGONISTES CALCIQUES EN ASSOCIATION AVEC ANTIHYPERTENSEUR ET,OU DIURETIQUE
C08B2;ASSOCIATIONS ANTAGONISTE CALCIQUE ET BETABLOQUANT
C08B3;ANTAGONISTES CALCIQUES EN ASSOCIATION AVEC MEDICAMENTS DU SYST.CARDIOVASCUL.
C08B4;ANTAGONISTES CALCIQUES EN ASSOCIATION AVEC TOUS AUTRES MEDICAMENTS
C09;MEDICAMENTS AGISSSANT SUR LE SYSTEME RENINE-ANGIOTENSINE
C09A;INHIBITEURS DE L'ENZYME DE CONVERSION NON ASSOCIES
C09B;INHIBITEURS DE L'ENZYME DE CONVERSION EN ASSOCIATION
C09B1;ASSOCIATIONS IEC ET ANTIHYPERTENSEURS (C2) ET,OU DIURETIQUES (C3)
C09B2;ASSOCIATIONS IEC ET BETABLOQUANT
C09B3;ASSOCIATIONS IEC ET ANTAGONISTE CALCIQUE (C8)
C09B9;ASSOCIATIONS IEC ET TOUTE AUTRE SUBSTANCE ACTIVE
C09C;ANTAGONISTES DE L'ANGIOTENSINE II NON ASSOCIES
C09D;ANTAGONISTES DE L'ANGIOTENSINE II EN ASSOCIATION
C09D1;ANTAGONISTES ANGIOTENSINE II EN ASSOC. AVEC ANTIHYPERTENS ET/OU DIURET
C09D2;ANTAGONISTES ANGIOTENSINE II EN ASSOC. AVEC BETABLOQUANTS
C09D3;ANTAGONISTES ANGIOTENSINE II EN ASSOC. AVEC ANTAGONISTES CALCIQUES
C09D4;ANTAGONISTES ANGIOTENSINE II EN ASSOC. AVEC INHIBITEURS ENZYME DE CONSERSION
C09D9;ANTAGONISTES ANGIOTENSINE II EN ASSOC. AVEC AUTRES MEDICAMENTS
C09X;AUTRES MEDICAMENTS AGISSANT SUR LE SYSTEME RENINE-ANGIOTENSINE
C10;REGULATEURS DU METABOLISME LIPIDIQUE ET MEDICAMENTS ANTI-ATHEROMATEUX
C10A;MEDICAMENTS REGULANT LE CHOLESTEROL ET LES TRIGLYCERIDES
C10A1;STATINES (INHIBITEURS DE LA HMG-COA REDUCTASE)
C10A2;FIBRATES
C10A3;RESINES ECHANGEUSES D'IONS
C10A4;INHIBITEURS DE PCSK9
C10A9;AUTRES REGULATEURS DU CHOLESTEROL ET DES TRIGLYCERIDES
C10B;MEDICAMENTS ANTI-ATHEROMATEUX D'ORIGINE NATURELLE
C10C;REGULATEURS LIPIDIQUES EN ASSOCIATION AVEC D'AUTRES REGULATEURS LIPIDIQUES
C11;ASSOCIATIONS EN THERAPEUTIQUE CARDIOVASCULAIRE
C11A;ASSOCIATIONS ..
C11A1;ASSOCIATIONS FIXES
C11A2;ASSOCIATIONS CONDITIONNEMENTS
D;MEDICAMENTS DERMATOLOGIQUES
D01;ANTIFONGIQUES, A USAGE DERMATOLOGIQUE
D01A;ANTIFONGIQUE, A USAGE DERMATOLOGIQUE
D01A1;ANTIFONGIQUES TOPIQUES A USAGE DERMATOLOGIQUE
D01A2;ANTIFONGIQUES SYSTEMIQUES A USAGE DERMATOLOGIQUE
D01A3;ANTIFONGIQUES TOPIQUES POUR LE CUIR CHEVELU
D02;EMOLLIENTS, PROTECTEURS
D02A;EMOLLIENT, PROTECTEUR
D03;AGENTS CICATRISANTS DES PLAIES
D03A;AGENT CICATRISANT DES PLAIES
L01H1;ANTICANCEREUX INHIBITEUR DE PROTEINE KINASE DIRIGE CONTRE BCR-ABL
L01H2;ANTICANCEREUX INHIBITEUR DE PROTEINE KINASE DIRIGE CONTRE EGFR
L01H3;ANTICANCEREUX INHIBITEUR DE PROTEINE KINASE DIRIGE CONTRE ALK
L01H4;ANTICANCEREUX INHIBITEUR DE PROTEINE KINASE DIRIGE CONTRE BRAF/MEK
L01H5;ANTICANCEREUX INHIBITEUR DE PROTEINE KINASE CDK (CYCLIN DEPENDENT KINASE)
L01H6;ANTICANCEREUX INHIBITEUR DE PROTEINE KINASE
L01H9;AUTRES ANTICANCEREUX INHIBITEURS DE PROTEINE KINASE
L01J;ANTICANCEREUX INHIBITEURS DU PROTEASOME
L01K;ANTICANCEREUX LIDOMIDE
L01L;ANTICANCEREUX INHIBITEURS DE PARP
L01X;AUTRES ANTINEOPLASIQUES
L01X1;PREPARATIONS ADJUVANTES POUR LE TRAITEMENT DES CANCERS
L01X2;HORS D'USAGE
L01X3;ANTINEOPLASIQUE INHIBITEUR HDAC
L01X4;HORS D'USAGE
L01X5;ANTICANCEREUX PAR CAR T-CELL THERAPIE
L01X6;ANTICANCEREUX INHIBITEURS DE LA VOIE HEDGEHOG
L01X8;ANTICANCEREUX POUR PHOTOTHERAPIE
L01X9;AUTRES ANTINEOPLASIQUES
L02;THERAPIE PAR HORMONE CYTOSTATIQUE
L02A;HORMONES CYTOSTATIQUES
L02A1;OESTROGENES CYTOSTATIQUES
L02A2;PROGESTATIFS CYTOSTATIQUES
L02A3;ANALOGUES CYTOSTATIQUES DU FACTEUR DE LIBERATION DES GONADOTROPHINES
L02A9;AUTRES HORMONES CYTOSTATIQUES
L02B;ANTIHORMONES CYTOSTATIQUES
L02B1;ANTIOESTROGENES CYTOSTATIQUES
L02B2;ANTIANDROGENES CYTOSTATIQUES
L02B3;INHIBITEURS DE L'AROMATASE CYTOSTATIQUES
L02B9;AUTRES ANTIHORMONES CYTOSTATIQUES
L03;IMMUNOSTIMULANTS
L03A;IMMUNOSTIMULANTS, INTERFERONS EXCLUS
L03A1;FACTEURS DE CROISSANCE
L03A9;TOUS AUTRES IMMUNOSTIMULANTS, INTERFERONS EXCLUS
L03B;INTERFERONS
L03B1;INTERFERONS, ALPHA
L03B2;INTERFERONS, BETA
L03B3;INTERFERONS, GAMMA
L03B9;INTERFERONS, NON SPECIFIQUES
L04;IMMUNOSUPPRESSEURS
L04B;MEDICAMENTS ANTI-TNF
L04C;INHIBITEUR DES INTERLEUKINES
L04X;AUTRES IMMUNOSUPPRESSEURS
M;SYSTEME MUSCULAIRE ET SQUELETTE
M01;ANTIINFLAMMATOIRES ET ANTIRHUMATISMAUX
M01A;ANTIRHUMATISMAUX NON STEROIDIENS
M01A1;ANTIRHUMATISMAUX NON STEROIDIENS NON ASSOCIES
M01A2;ANTIRHUMATISMAUX NON STEROIDIENS EN ASSOCIATION
M01A3;COXIBS NON ASSOCIES
M01B;ASSOCIATIONS DE CORTICOIDES ANTIRHUMATISMAUX
M01C;ANTIRHUMATISMAUX SPECIFIQUES
M02;ANTIRHUMATISMAUX TOPIQUES
M02A;ANTIRHUMATISMAL TOPIQUE ET ANALGESIQUES
M03;MYORELAXANTS
M03A;MYORELAXANTS A ACTION PERIPHERIQUE
M03B;MYORELAXANTS A ACTION CENTRALE
M04;MEDICAMENTS ANTIGOUTTEUX
M04A;ANTIGOUTTEUX
M05;AUTRES MEDICAMENTS DES DESORDRES MUSCULAIRES ET DU SQUELETTE
M05B;REGULATEURS DU CALCIUM OSSEUX
M05B3;DIPHOSPHONATES POUR L'OSTEOPOROSE ET LES TROUBLES ASSOCIES
M05B4;DIPHOSPHONATES POUR LES TROUBLES DU CALCIUM TUMEUR DEPENDANTS
M05B9;AUTRES REGULATEURS DU CALCIUM OSSEUX
M05X;AUTRE MEDICAMENT DES DESORDRES MUSCULAIRES ET DU SQUELETTE
N;SYSTEME NERVEUX
N01;ANESTHESIQUES
N01A;ANESTHESIQUES GENERAUX
N01A1;ANESTHESIQUES GENERAUX POUR INHALATION
N01A2;ANESTHESIQUES GENERAUX INJECTABLES
N01B;ANESTHESIQUES LOCAUX
N01B1;ANESTHESIQUES LOCAUX INJECTABLES A USAGE MEDICAL
N01B2;ANESTHESIQUES LOCAUX INJECTABLES A USAGE DENTAIRE
N01B3;ANESTHESIQUES LOCAUX A USAGE TOPIQUE (PEAU OU MUQUEUSES)
N01B9;ANESTHESIQUES LOCAUX AUTRES
N02;ANALGESIQUES
N02A;NARCOTIQUES
N02B;NON NARCOTIQUES ET ANTIPYRETIQUES
N02B1;NON NARCOTIQUE OU ANTIPYRETIQUE SUR PRESCRIPTION
N02B2;NON NARCOTIQUE OU ANTIPYRETIQUE HORS PRESCRIPTION
N02C;MEDICAMENTS ANTIMIGRAINEUX
N02C1;TRIPTANS ANTIMIGRAINEUX
N02C2;ANTIMIGRAINEUX ANTAGONISTE DE CGRP
N02C9;AUTRES ANTIMIGRAINEUX
N03;ANTIEPILEPTIQUES
N03A;ANTIEPILEPTIQUE
N04;ANTIPARKINSONIENS
N04A;ANTIPARKINSONIEN
N05;PSYCHOLEPTIQUES
N05A;ANTIPSYCHOTIQUES
N05A1;ANTIPSYCHOTIQUES ATYPIQUES
N05A9;ANTIPSYCHOTIQUES CONVENTIONNELS
N05B;HYPNOTIQUES, SEDATIFS
N05B1;NON BARBITURIQUES NON ASSOCIES
N05B2;NON BARBITURIQUES EN ASSOCIATION
N05B3;BARBITURIQUES NON ASSOCIES
N05B4;BARBITURIQUES EN ASSOCIATION
N05B5;HYPNOTIQUES, SEDATIFS EN PHYTOTHERAPIE
N05C;TRANQUILLISANTS
N06;PSYCHOANALEPTIQUES, MEDICAMENTS ANTI-OBESITE EXCLUS
N06A;ANTIDEPRESSEURS ET NORMOTHYMIQUES
N06A2;ANTIDEPRESSEURS EN PHYTOTHERAPIE
N06A3;NORMOTHYMIQUES
N06A4;ANTIDEPRESSEURS INHIBITEURS SELECTIFS DE LA RECAPTURE DE SEROTONINE (SSRI)
N06A5;ANTIDEPRESSEURS INHIBITEURS DE RECAPTURE DE SEROTONINE ET NORADRENALINE
N06A9;AUTRES ANTIDEPRESSEURS
N06B;PSYCHOSTIMULANTS
N06C;PSYCHOLEPTIQUES + PSYCHOANALEPTIQUES ASSOCIES
N06D;NOOTROPIQUES
N06E;NEUROTONIQUES ET AUTRES MEDICAMENTS DIVERS
N07;AUTRES MEDICAMENTS DU SNC
N07A;MEDICAMENTS CONTRE SCLEROSES MULTIPLES
N07B;MEDICAMENTS POUR L'ARRET DU TABAC
N07C;MEDICAMENTS ANTIVERTIGINEUX
N07D;MEDICAMENTS CONTRE LA MALADIE D'ALZHEIMER
N07D1;INHIBITEURS DE CHOLIESTERASES CONTRE LA MALADIE D'ALZHEIMER
N07D9;AUTRES MEDICAMENTS CONTRE LA MALADIE D'ALZHEIMER
N07E;MEDICAMENTS CONTRE LA DEPENDANCE ALCOOLIQUE
N07F;MEDICAMENTS CONTRE LA DEPENDANCE OPIOIDE
N07X;AUTRES MEDICAMENTS DU SNC
P;PARASITOLOGIE
P01;ANTIPROTOZOAIRES ET ANTHELMINTHIQUES
P01A;AMOEBICIDES
P01B;ANTHELMINTHIQUES, SCHISTOSOMICIDES EXCLUS
P01C;SCHISTOSOMICIDES
P01D;ANTIPALUDEENS
P01D1;ANTIPALUDEENS, UNE SEULE SUBSTANCE ACTIVE
P01D2;ANTIPALUDEENS, PLUSIEURS SUBSTANCES ACTIVES
P01G;AUTRES ANTIPARASITAIRES
P03;ANTIPARASITAIRES EXTERNES, INCLUANT SCABICIDES, INSECTICIDES
P03A;ANTIPARASITAIRES EXTERNES, SCABICIDES INCLUS
P03B;INSECTICIDES
R;SYSTEME RESPIRATOIRE
R01;PREPARATIONS NASALES
R01A;PREPARATIONS NASALES TOPIQUES
R01A1;CORTICOIDES SANS ANTIINFECTIEUX A USAGE NASAL
R01A3;CORTICOIDES AVEC ANTIINFECTIEUX A USAGE NASAL
R01A4;ANTIINFECTIEUX SANS CORTICOIDES A USAGE NASAL
R01A6;ANTIALLERGIQUES A USAGE NASAL
R01A7;DECONGESTIONNANTS A USAGE NASAL
R01A9;AUTRES PREPARATIONS NASALES TOPIQUES
R01B;PREPARATIONS NASALES SYSTEMIQUES
R02;MEDICAMENTS POUR LA GORGE
R02A;MEDICAMENT POUR LA GORGE
R03;ANTIASTHMATIQUES ET MEDICAMENTS DE LA BPCO
R03A;BETA 2 STIMULANTS
R03A2;BETA 2 STIMULANTS, SYSTEMIQUES
R03A3;BETA 2 STIMULANTS INHALES D'ACTION PROLONGEE
R03A4;BETA 2 STIMULANTS INHALES D'ACTION BREVE
R03B;XANTHINES
R03B1;XANTHINES, A INHALER
R03B2;XANTHINES, SYSTEMIQUES
R03C;ANTIINFLAMMATOIRES NON STEROIDIENS A USAGE RESPIRATOIRE
R03C1;ANTIINFLAMMATOIRES NON STEROIDIENS A USAGE RESPIRATOIRE, A INHALER
R03C2;ANTIINFLAMMATOIRES NON STEROIDIENS A USAGE RESPIRATOIRE, SYSTEMIQUES
R03D;CORTICOIDES
R03D1;CORTICOIDES, A INHALER
R03D2;CORTICOIDES, SYSTEMIQUES
R03E;BETA 2 STIMULANTS + AINS A USAGE RESPIRATOIRE
R03E1;BETA 2 STIMULANTS + AINS A USAGE RESPIRATOIRE, A INHALER
R03E2;BETA 2 STIMULANTS + AINS A USAGE RESPIRATOIRE SYSTEMIQUES
R03F;BETA 2 STIMULANTS + CORTICOIDES
R03F1;BETA 2 STIMULANTS + CORTICOIDES, A INHALER
R03F2;BETA 2 STIMULANTS + CORTICOIDES, SYSTEMIQUES
R03H;INHIBITEURS DE PDE4 CONTRE L'ASTHME / LA BPCO
R03H1;INHIBITEURS DE PDE4 INHALES CONTRE L'ASTHME OU LA BPCO
R03H2;INHIBITEURS SYSTEMIQUES DE PDE4 CONTRE L'ASTHME OU LA BPCO
R03I;APPAREILS POUR ASTHMATIQUES
R03J;ANTIASTHMATIQUES ANTAGONISTES DES LEUCOTRIENES
R03J1;ANTIASTHMATIQUES ANTAGONISTES DES LEUCOTRIENES, A INHALER
R03J2;ANTIASTHMATIQUES ANTAGONISTES DES LEUCOTRIENES, SYSTEMIQUES
R03K;ANTICHOLINERGIQUES NON ASSOCIES
R03K1;ANTICHOLINERGIQUES INHALES NON ASSOCIES D'ACTION RAPIDE
R03K2;ANTICHOLINERGIQUES INHALES NON ASSOCIES D'ACTION LONGUE
R03L;ANTICHOLINERGIQUES + BETA 2 AGONISTES
R03L1;ANTICHOLINERGIQUES INHALES D'ACTION RAPIDE + BETA 2 AGONISTES D'ACTION RAPIDE
R03L2;ANTICHOLINERGIQUES INHALES D'ACTION LONGUE + BETA 2 AGONISTES D'ACTION LONGUE
R03L3;ANTICHOLINERGIQUE INHALE + AGONISTE BETA D'ACTION LONGUE + CORTICOSTEROIDE
R03L8;ANTICHOLINERGIQUES + BETA 2 AGONISTES SYSTEMIQUES
R03L9;AUTRES ANTICHOLINERGIQUES + BETA 2 AGONISTES INHALES
R03M;ANTI-ASTHMATIQUE INHIBITEUR D'INTERLEUKINE
R03X;TOUS AUTRES ANTIASTHMATIQUES ET MEDICAMENTS DE LA BPCO
R03X1;TOUS AUTRES ANTIASTHMATIQUES ET MEDICAMENTS DE LA BPCO, A INHALER
R03X2;TOUS AUTRES ANTIASTHMATIQUES ET MEDICAMENTS DE LA BPCO, SYSTEMIQUES
R04;PRODUITS DE FRICTION THORACIQUE ET AUTRES PRODUITS A INHALER
R04A;PRODUIT DE FRICTION THORACIQUE ET AUTRE PRODUIT A INHALER
R05;MEDICAMENTS DU RHUME ET DE LA TOUX
R05A;MEDICAMENTS DU RHUME SANS ANTIINFECTIEUX
R05B;MEDICAMENTS DU RHUME ET DE LA TOUX AVEC ANTIINFECTIEUX
R05C;EXPECTORANTS
R05D;ANTITUSSIFS
R05D1;ANTITUSSIFS NON ASSOCIES
R05D2;ANTITUSSIFS EN ASSOCIATION
R05F;AUTRES MEDICAMENTS DU RHUME ET DE LA TOUX
R06;ANTIHISTAMINIQUES SYSTEMIQUES
R06A;ANTIHISTAMINIQUE SYSTEMIQUE
R07;AUTRES MEDICAMENTS DU SYSTEME RESPIRATOIRE
R07A;STIMULANTS RESPIRATOIRES
R07B;MEDICAMENTS CONTRE LA MUCOVISCIDOSE
R07B1;MEDICAMENTS DE LA MUCOVISCIDOSE MODULATEURS DU CFTR TRANSMEMBRANAIRE
R07C;SURFACTANTS PULMONAIRES
R07D;MEDICAMENTS CONTRE LA FIBROSE PULMONAIRE IDIOPATHIQUE
R07X;AUTRE MEDICAMENT DU SYSTEME RESPIRATOIRE
S;ORGANES DES SENS
S01;PRODUITS OPHTALMOLOGIQUES
S01A;ANTIINFECTIEUX OPHTALMIQUES
S01B;CORTICOIDES OPHTALMIQUES
S01C;ASSOCIATIONS ANTIINFLAMMATOIRE/ANTIINFECTIEUX OPHTALMIQUES
S01C1;ASSOCIATIONS DE CORTICOIDES ET D'ANTIINFECTIEUX OPHTALMIQUES
S01C2;ASSOCIATIONS D'ANTIINFLAMMATOIRES NON STEROIDIENS ET D'ANTIINFECTIEUX OPHTALM
S01C9;AUTRES ASSOCIATIONS D'ANTIINFLAMMATOIRES ET D'ANTIINFECTIEUX OPHTALMIQUES
S01D;ANTIVIRAUX OPHTALMIQUES
S01E;MYOTIQUES ET ANTIGLAUCOMATEUX
S01E1;MYOTIQUES ET ANTIGLAUCOMATEUX SYSTEMIQUES
S01E2;MYOTIQUES ET ANTIGLAUCOMATEUX A USAGE TOPIQUE
S01F;MYDRIATIQUES ET CYCLOPLEGIQUES
S01G;ANTI-ALLERGIQUES, DECONGESTIONNANTS, ANTISEPTIQUES OCULAIRES
S01G1;ANTI-ALLERGIQUES OCULAIRES, ANTIHISTAMINIQUES
S01G2;ANTI-ALLERGIQUES OCULAIRES, STALIBISANTS DES MASTOCYTES
S01G3;ANTI-ALLERGIQUES OCULAIRES, ACTION MULTIPLE
S01G5;DECONGESTIONNANTS OCULAIRES, SYMPATHOMIMETIQUES
S01G6;ANTISEPTIQUES OCULAIRES
S01G9;AUTRES PRODUITS OCULAIRES SIMILAIRES
S01H;ANESTHESIQUES LOCAUX OPHTALMIQUES
S01K;MEDICAMENTS CONTRE LA SECHERESSE OCULAIRE
S01K1;LARMES ARTIFICIELLES ET LUBRIFIANTS OCULAIRES
S01K9;AUTRES MEDICAMENTS CONTRE LA SECHERESSE OCULAIRE
S01L;PRODUITS DE CONTACTOLOGIE
S01M;TONIQUES OCULAIRES ET VITAMINES OCULAIRES
S01N;MEDICAMENTS POUR LA CATARACTE
S01N1;MEDICAMENTS POUR LA CATARACTE SYSTEMIQUES
S01N2;MEDICAMENTS POUR LA CATARACTE A USAGE TOPIQUE
S01P;PRODUITS ANTINEOVASCULARISATION OCULAIRE
S01R;ANTIINFLAMMATOIRES NON STEROIDIENS OPHTALMIQUES
S01S;AIDES EN CHIRURGIE OPHTALMOLOGIQUE
S01S1;SUBSTANCES VISCOLELASTIQUES
S01S9;AUTRES AIDES CHIRURGICALES
S01T;AGENTS DE DIAGNOSTIC OPHTALMOLOGIQUE
S01X;AUTRES MEDICAMENTS OPHTALMIQUES
S01X1;AUTRES MEDICAMENTS OPHTALMIQUES SYSTEMIQUES
S01X2;AUTRES MEDICAMENTS OPHTALMIQUES A USAGE TOPIQUE
S02;MEDICAMENTS OTOLOGIQUES
S02A;ANTIINFECTIEUX A USAGE AURICULAIRE
S02B;CORTICOIDES A USAGE AURICULAIRE
S02C;ASSOCIATIONS DE CORTICOIDES ET D'ANTIINFECTIEUX A USAGE AURICULAIRE
S02D;AUTRES MEDICAMENTS A USAGE AURICULAIRE
S02D1;CERUMENOLYTIQUES
S02D9;TOUS AUTRES MEDICAMENTS A USAGE AURICULAIRE
S03;ASSOCIATIONS OPHTALMOLOGIQUE ET OTOLOGIQUE
S03A;ANTIINFECTIEUX OEIL ET OREILLE
S03B;CORTICOIDES OEIL ET OREILLE
S03C;ASSOCIATIONS DE CORTICOIDE ET D'ANTIINFECTIEUX OEIL ET OREILLE
S03D;AUTRES ASSOCIATIONS OEIL/OREILLE
T;PRODUITS DE DIAGNOSTIC
T01;IMAGERIE DIAGNOSTIQUE
T01A;ANGIO-UROGRAPHIE BASSE OSMOLARITE
T01B;ANGIO-UROGRAPHIE IONIQUE
T01C;GASTROENTROGRAPHIE
T01D;CHOLECYSTOGRAPHIE ET CHOLANGIOGRAPHIE
T01E;PRODUITS POUR IRM
T01F;PRODUITS POUR ECHOGRAPHIE
T01G;RADIOPHARMACEUTIQUES A USAGE DIAGNOSTIC
T01X;AUTRES PRODUITS D'IMAGERIE
T02;TESTS DIAGNOSTIQUES
T02C;TESTS DE GROSSESSE ET D'OVULATION
T02D;TESTS DU DIABETE
T02D1;TESTS DU DIABETE, URINAIRES
T02D2;TESTS DU DIABETE, SANGUINS
T02X;TOUS AUTRES TESTS DIAGNOSTIQUES
T02X1;TOUS AUTRES TESTS DIAGNOSTIQUES, URINAIRES
T02X2;TOUS AUTRES TESTS DIAGNOSTIQUES, SANGUINS
T02X9;TOUT AUTRE TEST DIAGNOSTIQUE
T03;EQUIPEMENT ET ACCESSOIRES DE DIAGNOSTIC
T03A;EQUIPEMENT ET ACCESSOIRE DE DIAGNOSTIC
V;DIVERS
V01;ALLERGENES
V01A;ALLERGENE
V03;AUTRES PRODUITS THERAPEUTIQUES
V03B;KANPO ET MEDECINES CHINOISES
V03B1;KANPO
V03B2;MEDECINES CHINOISES
V03C;PRODUITS RADIOPHARMACEUTIQUES
V03D;MEDICAMENTS DETOXIFIANTS DANS UN TRAITEMENT ANTINEOPLASIQUE
V03E;ANTIDOTES
V03F;AGENTS CHELATEURS DU FER
V03G;MEDICAMENTS DE L'HYPERKALIEMIE ET DE L'HYPERPHOSPHATEMIE
V03G1;MEDICAMENTS CONTRE L'HYPERKALIEMIE
V03G2;MEDICAMENTS CONTRE L'HYPERPHOSPHATEMIE
V03H;ENZYMES ANTI-INFLAMMATOIRES
V03X;TOUS AUTRES PRODUITS THERAPEUTIQUES
V05;ANTISEPTIQUES POUR USAGE NON HUMAIN
V05A;ANTISEPTIQUE POUR USAGE NON HUMAIN
V06;PRODUITS DIETETIQUES
V06A;PREPARATIONS AMINCISSANTES
V06B;SUPPLEMENTATION PROTEIQUE
V06C;FORMULES ENFANTS
V06D;AUTRES NUTRIMENTS
V07;AUTRES PRODUITS NON THERAPEUTIQUES
V07A;AUTRE PRODUIT NON THERAPEUTIQUE
X;CLASSE NON DETERMINEE
