PRS_NAT;ASU_NAT;PRS_NAT_TDM
1112;40;1
1112;70;1
1112;90;2
1113;10;1
1113;30;1
1113;40;1
1113;70;1
1114;10;1
1114;30;1
1114;40;1
1115;10;1
1115;30;1
1116;10;1
1116;30;1
1116;40;1
1116;70;1
1116;90;2
1117;10;1
1117;30;1
1117;40;1
1117;70;19
1117;90;1
1118;10;1
1118;30;1
1118;40;1
1118;70;19
1118;90;1
1119;10;1
1119;30;1
1119;40;1
1120;10;
1120;30;
1120;40;
1120;70;
1121;10;1
1121;30;1
1121;40;1
1122;10;1
1122;30;1
1123;10;1
1123;30;1
1124;10;1
1125;10;1
1125;30;1
1125;40;1
1125;90;2
1126;10;1
1126;30;1
1126;40;1
1126;90;2
1127;10;1
1127;30;1
1127;40;1
1128;10;1
1129;10;1
1129;30;1
1129;40;1
1129;70;1
1129;90;2
1130;10;
1131;10;1
1131;30;1
1131;40;1
1132;10;1
1132;30;1
1132;40;1
1133;10;1
1133;30;1
1133;40;1
1134;10;1
1134;30;1
1135;10;1
1135;30;1
1136;10;1
1136;30;1
1137;10;1
1137;30;1
1138;10;1
1139;10;1
1140;10;
1140;30;
1141;10;
1141;30;
1141;40;
1142;10;
1143;10;
1144;10;
1145;10;
1146;10;
1147;10;
1148;10;
1149;10;
1150;10;
1152;10;
1152;30;
1153;10;
1153;30;
1153;40;
1154;10;
1154;30;
1154;40;
1155;10;99
1156;10;99
1157;10;99
1158;10;99
1159;10;99
1159;30;99
1159;40;99
1160;10;99
1161;10;99
1162;10;99
1163;90;99
1164;10;99
1164;30;99
1165;10;99
1165;30;99
1166;10;99
1167;10;99
1168;10;99
1169;10;99
1170;10;99
1171;10;99
1172;10;99
1172;30;99
1173;10;99
1174;10;99
1174;30;99
1175;10;99
1175;30;99
1175;40;99
1176;10;99
1177;30;99
1178;10;99
1179;10;99
1180;10;99
1181;10;99
1182;10;99
1183;10;99
1184;10;99
1185;10;99
1186;10;99
1187;10;99
1188;10;99
1189;10;99
1190;10;99
1191;10;99
1191;30;99
1191;40;99
1192;10;99
1192;30;99
1192;40;99
1193;10;99
1193;30;99
1193;40;99
1194;10;99
1194;30;99
1194;40;99
1195;10;99
1196;10;99
1196;30;99
1196;40;99
1196;50;99
1196;70;99
1196;80;99
1196;90;99
1197;10;99
1198;10;99
1199;10;99
1199;30;99
1199;40;99
1209;10;99
1209;30;99
1209;40;99
1210;10;99
1210;30;99
1210;40;99
1211;10;1
1211;30;1
1211;40;1
1212;10;1
1212;30;1
1212;40;1
1213;10;1
1213;30;1
1213;40;1
1214;10;
1214;30;
1215;10;99
1215;30;99
1215;40;99
1216;10;99
1216;30;99
1216;40;99
1221;10;1
1221;30;1
1221;40;1
1222;10;1
1222;30;1
1222;40;1
1224;10;1
1224;30;1
1224;40;1
1226;10;1
1226;30;1
1226;40;1
1227;10;1
1227;30;1
1227;40;1
1228;10;1
1228;30;1
1228;40;1
1311;10;1
1311;30;1
1311;40;1
1312;10;1
1312;30;1
1312;40;1
1312;70;1
1312;90;2
1313;10;1
1313;30;1
1313;40;1
1316;10;1
1316;30;1
1316;40;1
1316;70;1
1318;10;1
1318;30;1
1318;40;1
1321;10;1
1321;30;1
1321;40;1
1321;70;1
1321;90;
1322;10;1
1322;30;1
1322;40;1
1322;70;1
1323;10;1
1323;30;1
1323;40;1
1323;70;1
1324;10;1
1324;30;1
1324;40;1
1324;70;1
1324;90;
1331;10;1
1331;30;1
1331;40;1
1331;70;1
1331;90;2
1335;10;1
1335;30;1
1335;40;1
1336;10;1
1336;90;1
1351;10;99
1351;30;99
1351;40;99
1351;70;99
1351;90;99
1352;10;1
1352;30;1
1352;40;1
1352;70;1
1352;90;2
1361;10;1
1361;30;1
1361;40;1
1400;10;99
1400;30;99
1400;40;99
1401;10;99
1401;30;99
1401;40;99
1402;10;99
1402;30;99
1402;40;99
1403;10;99
1403;30;99
1403;40;99
1404;10;99
1404;30;99
1404;40;99
1405;10;99
1405;30;99
1405;40;99
1406;10;99
1406;30;99
1406;40;99
1407;10;99
1407;30;99
1407;40;99
1408;10;99
1408;30;99
1408;40;99
1409;10;99
1409;30;99
1409;40;99
1410;10;99
1410;30;99
1410;40;99
1410;90;99
1411;10;1
1411;30;1
1411;40;1
1411;70;1
1412;10;99
1412;30;99
1412;40;99
1413;10;99
1413;30;99
1413;40;99
1414;10;99
1414;30;99
1414;40;99
1415;10;99
1415;30;99
1415;40;99
1416;10;99
1416;30;99
1416;40;99
1417;10;99
1417;30;99
1417;40;99
1418;10;99
1418;30;99
1418;40;99
1419;10;99
1419;30;99
1419;40;99
1420;10;99
1420;30;99
1420;40;99
1421;10;1
1421;30;1
1421;40;1
1422;10;1
1422;30;1
1422;40;
1422;70;1
1423;10;2
1423;30;2
1423;40;2
1424;10;2
1424;30;2
1424;40;2
1424;70;1
1425;10;99
1425;30;99
1425;40;99
1426;10;99
1427;10;99
1427;30;99
1427;40;99
1431;10;2
1431;30;2
1431;40;2
1431;70;1
1432;10;2
1432;30;2
1432;40;2
1432;90;2
1433;10;2
1433;30;2
1433;40;2
1433;70;1
1433;90;2
1434;30;99
1435;30;99
1436;30;99
1437;10;
1437;30;
1437;40;
1438;30;99
1451;10;
1451;30;
1451;40;
1452;10;
1452;30;
1452;40;
1453;10;
1453;30;
1453;40;
1462;10;
1462;30;
1462;40;
1465;10;
1465;30;
1465;40;
1470;10;
1470;30;
1470;40;
1471;10;
1471;30;
1471;40;
1472;10;
1472;30;
1472;40;
1473;10;
1473;30;
1473;40;
1474;10;
1474;30;
1474;40;
1475;10;
1475;30;
1475;40;
1476;10;
1476;30;
1476;40;
1477;10;
1477;30;
1477;40;
1521;30;1
1522;10;1
1522;30;1
1523;10;
1601;10;1
1601;40;1
1602;10;1
1602;40;1
1605;10;1
1605;40;1
1606;10;1
1606;40;1
1608;10;1
1608;40;1
1609;10;1
1609;40;1
1610;10;99
1611;10;1
1611;40;1
1612;10;1
1612;40;1
1613;10;1
1613;40;1
1614;10;1
1614;40;1
1615;10;1
1615;40;1
1616;10;1
1616;40;1
1617;10;1
1617;40;1
1618;10;1
1618;40;1
1619;10;
1619;40;
1621;10;
1622;10;
1623;10;
1624;10;
1625;10;
1626;10;
1627;10;
1628;10;
1629;10;
1630;10;
1631;10;
1632;10;
1633;10;
1634;10;
1635;10;
1636;10;
1637;10;
1638;10;
1639;10;
1640;10;99
1641;10;99
1642;10;99
1643;10;99
1644;10;99
1645;10;99
1646;10;99
1647;10;99
1648;10;99
1649;10;99
1650;10;99
1651;10;99
1652;10;99
1653;10;99
1701;10;1
1702;10;1
1703;10;1
1704;10;1
1705;10;1
1706;10;1
1707;10;1
1708;10;1
1715;10;1
1715;40;1
1716;10;1
1716;40;1
1717;10;1
1717;40;1
1718;10;1
1718;40;1
1721;10;
1722;10;
1723;10;
1724;10;
1725;10;
1726;10;
1727;10;
1728;10;
1729;10;
1731;10;
1732;10;
1733;10;
1734;10;
1735;10;
1736;10;
1741;10;
1742;10;
1743;10;
1744;10;
1745;10;
1746;10;
1747;10;
1748;10;
1749;10;
1751;10;
1761;10;
1762;10;
1763;10;
1764;10;
1765;10;
1766;10;
1767;10;
1768;10;
1769;10;
1771;10;
1781;10;
1782;10;
1783;10;
1784;10;
1785;10;
1786;10;
1787;10;
1788;10;
1789;10;
1791;10;
1811;10;
1811;30;
1811;40;
1811;90;
1812;10;
1812;30;
1812;40;
1812;90;
1813;10;
1813;30;
1813;40;
1813;90;
1814;10;
1821;10;
1821;30;
1821;40;
1841;10;
1841;30;
1841;40;
1842;10;3
1842;30;3
1842;40;3
1842;90;
1843;10;3
1843;30;3
1843;40;3
1844;10;3
1844;30;3
1844;40;3
1845;10;3
1845;30;3
1845;40;3
1846;10;3
1846;30;3
1846;40;3
1846;90;3
1847;10;3
1847;30;3
1847;40;3
1847;90;3
1848;10;99
1848;30;99
1848;40;99
1848;70;99
1849;10;99
1849;40;99
1901;10;99
1901;30;99
1901;40;99
1901;90;99
1903;10;99
1903;30;99
1904;10;99
1904;30;99
1905;10;99
1905;30;99
1905;40;99
1906;10;99
1906;30;99
1907;10;99
1908;30;99
1909;30;99
1910;10;
1911;10;1
1911;30;1
1911;40;1
1911;90;
1912;10;1
1912;30;1
1912;40;1
1913;10;1
1913;30;1
1913;40;1
1914;10;1
1914;30;1
1914;40;1
1914;90;2
1915;10;1
1915;40;1
1916;10;1
1916;40;1
1917;10;1
1917;40;1
1918;10;1
1918;30;1
1918;40;1
1919;10;1
1919;30;1
1920;10;
1921;10;1
1921;30;1
1921;90;1
1923;10;1
1923;30;1
1924;10;
1925;10;
1927;10;99
1928;10;99
1929;10;99
1929;30;99
1930;10;99
1930;30;99
1931;10;1
1931;30;1
1931;40;1
1931;90;2
1932;10;1
1932;30;1
1932;40;1
1932;90;2
1933;10;1
1933;30;1
1933;40;1
1934;10;1
1934;30;1
1934;40;1
1935;10;1
1935;30;1
1935;40;1
1936;10;1
1936;30;1
1936;40;1
1937;10;1
1937;30;1
1937;40;1
1938;10;1
1938;30;1
1938;40;1
1939;10;99
1939;30;99
1940;30;99
1941;10;1
1941;30;1
1941;40;1
1942;10;1
1942;30;1
1942;40;1
1943;10;99
1943;30;99
1943;40;99
1944;10;99
1944;30;99
1944;40;99
1945;10;99
1945;30;99
1945;40;99
1951;10;1
1951;30;1
1951;40;1
1951;50;1
1951;70;1
1951;80;1
1951;90;20
1952;10;1
1952;30;1
1952;40;1
1952;50;1
1952;70;1
1952;80;1
1952;90;20
1086;10;99
1086;30;99
1086;40;99
1087;10;99
1088;10;99
1089;10;99
1090;10;99
1091;10;99
1092;10;99
1093;10;99
1094;10;99
1095;10;99
1095;30;99
1095;40;99
1096;10;99
1097;10;99
1098;10;99
1098;30;99
1098;40;99
1099;10;99
1099;30;99
1099;40;99
1100;10;99
1100;30;99
1101;10;99
1101;30;99
1101;40;99
1101;70;99
1102;10;99
1102;30;99
1102;40;99
1102;70;99
1103;10;99
1103;30;99
1103;40;99
1103;70;99
1104;10;99
1104;30;99
1105;10;99
1105;30;99
1106;10;99
1106;30;99
1106;40;99
1107;10;99
1107;30;99
1107;40;99
1108;10;99
1108;30;99
1108;40;99
1109;10;99
1109;30;99
1109;40;99
1109;90;99
1110;10;99
1110;30;99
1110;40;99
1110;90;99
1111;10;1
1111;30;1
1111;40;1
1111;70;1
1111;90;2
1112;10;1
1112;30;1
2112;10;1
2112;30;1
2112;40;1
2113;10;1
2113;30;1
2113;40;1
2116;10;1
2117;10;1
2118;10;1
2119;10;10
2119;30;10
2119;40;10
2120;10;1
2129;10;99
2129;30;99
2129;40;99
2131;10;99
2131;30;99
2131;40;99
2132;10;99
2132;30;99
2132;40;99
2133;10;99
2133;30;
2133;40;99
2134;10;99
2134;30;99
2134;40;99
2135;10;99
2135;30;99
2135;40;99
2136;10;99
2136;30;99
2136;40;99
2137;10;99
2137;30;99
2137;40;99
2138;10;99
2138;30;99
2138;40;99
2139;10;99
2139;30;99
2139;40;99
2140;10;99
2140;30;99
2140;40;99
2141;10;1
2141;30;1
2141;40;1
2142;10;99
2142;30;99
2142;40;99
2143;10;99
2143;30;99
2143;40;99
2144;10;99
2144;30;99
2144;40;99
2145;10;
2145;30;
2145;40;
2146;10;
2146;30;
2146;40;
2147;10;
2147;30;
2147;40;
2150;10;1
2150;30;1
2150;40;1
2151;10;99
2151;30;99
2151;40;99
2152;10;99
2152;30;99
2152;40;99
2153;10;99
2153;30;99
2153;40;99
2154;10;99
2154;30;99
2154;40;99
2155;10;99
2155;30;99
2155;40;99
2156;10;99
2156;30;99
2156;40;99
2157;10;99
2157;30;99
2157;40;99
2158;10;1
2158;30;1
2158;40;1
2159;10;1
2159;30;1
2159;40;1
2160;10;10
2161;10;99
2161;30;99
2161;40;99
2162;10;1
2162;40;1
2163;10;
2163;30;
2163;40;
2164;10;
2164;30;
2164;40;
2165;10;10
2165;30;10
2165;40;10
2166;10;10
2166;30;10
2166;40;10
2167;10;10
2167;30;10
2167;40;10
2168;10;10
2168;30;10
2168;40;10
2169;10;99
2170;10;
2171;10;
2172;10;
2173;10;10
2174;10;10
2175;10;10
2176;10;10
2177;10;10
2178;10;10
2179;10;99
2181;10;99
2181;30;99
2181;40;99
2182;10;99
2182;30;99
2182;40;99
2183;10;99
2183;30;99
2183;40;99
2184;10;99
2184;30;99
2184;40;99
2185;10;99
2185;30;99
2185;40;99
2186;10;1
2186;30;1
2186;40;1
2187;10;1
2187;30;1
2187;40;1
2188;10;1
2188;30;1
2188;40;1
2189;10;1
2189;30;1
2189;40;1
2190;10;1
2190;30;1
2190;40;1
2191;10;
2191;30;
2191;40;
2192;10;99
2193;10;99
2194;10;99
2195;10;
2195;30;
2195;40;
2196;10;
2196;30;
2196;40;
2197;10;99
2198;10;99
2201;10;2
2201;30;2
2201;40;2
2202;10;2
2203;10;2
2204;10;2
2204;30;2
2205;10;2
2206;10;2
2206;40;2
2207;10;10
2207;30;10
2207;40;10
2208;10;10
2208;30;10
2208;40;10
1954;10;1
1954;30;1
1954;40;1
1954;50;1
1954;70;1
1954;80;1
1954;90;20
1955;10;1
1955;30;1
1955;40;1
1955;50;1
1955;70;1
1955;80;1
1955;90;20
1956;10;1
1956;30;1
1956;40;1
1956;50;1
1956;70;1
1956;80;1
1956;90;20
1957;10;99
1957;40;99
1957;90;99
1962;10;99
1971;10;5
1971;30;5
1971;40;5
1971;50;5
1971;70;5
1971;80;5
1971;90;2
1972;10;5
1972;30;5
1972;40;5
1972;50;5
1972;70;5
1972;80;5
1972;90;2
1973;10;7
1973;30;7
1973;40;7
1973;50;7
1973;70;7
1973;80;7
1973;90;2
1974;10;7
1974;30;7
1974;40;7
1974;50;7
1974;70;7
1974;80;7
1974;90;2
1975;10;3
1975;30;3
1975;40;3
1975;50;3
1975;70;3
1975;80;3
1975;90;2
1976;10;3
1976;30;3
1976;40;3
1976;50;3
1976;70;3
1976;80;3
1976;90;2
1977;10;1
1977;30;1
1977;40;1
1977;50;1
1977;70;1
1977;80;1
1977;90;2
1978;10;1
1978;30;1
1978;40;1
1978;50;1
1978;70;1
1978;80;1
1978;90;2
1981;10;1
1990;10;99
1990;30;99
1991;10;1
1991;40;1
1992;10;1
1992;40;1
1993;10;1
1993;40;1
1994;10;1
1994;40;1
1995;10;1
1995;40;1
1996;10;1
1996;40;1
1997;10;1
1997;40;1
1998;10;99
1998;30;99
1999;10;99
1999;30;99
2102;10;99
2102;30;99
2103;10;10
2103;30;10
2103;40;10
2104;10;10
2104;30;10
2104;40;10
2105;10;10
2105;30;10
2105;40;10
2106;10;10
2106;30;10
2106;40;10
2107;10;10
2107;30;10
2107;40;10
2108;10;10
2108;30;10
2108;40;10
2109;10;10
2109;30;10
2109;40;10
2111;10;1
2111;30;1
2111;40;1
3584;40;99
3585;10;99
3585;30;99
3585;40;99
3586;10;99
3586;30;99
3586;40;99
3587;10;99
3587;30;99
3587;40;99
3588;10;99
3588;30;99
3588;40;99
3589;10;99
3589;30;99
3589;40;99
3590;10;99
3590;30;99
3590;40;99
3591;10;
3592;10;99
3593;10;99
3593;30;99
3594;10;99
3594;30;99
3594;40;99
3595;10;99
3595;30;99
3595;40;99
3596;10;99
3596;30;99
3596;40;99
4111;10;1
4111;30;1
4111;40;1
4112;10;1
4112;30;1
4112;40;1
4113;10;1
4113;30;1
4113;40;1
4114;10;1
4114;30;1
4114;40;1
4131;10;7
4131;30;7
4131;40;7
4132;10;7
4132;30;7
4132;40;7
4141;10;8
4141;30;8
4141;40;8
4142;10;8
4142;30;8
4142;40;8
4143;10;8
4143;30;8
4143;40;8
4144;10;8
4144;30;8
4144;40;8
4145;10;8
4145;30;8
9813;90;
9814;10;
9814;30;
9814;40;
9814;50;
9814;70;
9814;80;
9814;90;
9815;10;
9815;30;
9815;40;
9815;50;
9815;70;
9815;80;
9815;90;
9816;10;
9816;30;
9816;40;
9816;50;
9816;70;
9816;80;
9816;90;
9817;10;
9817;30;
9817;40;
9817;50;
9817;70;
9817;80;
9817;90;
9818;10;
9818;30;
9818;40;
9818;50;
9818;70;
9818;80;
9818;90;
9819;10;
9819;30;
9819;40;
9819;50;
9819;70;
9819;80;
9819;90;
9820;10;
9820;30;
9820;40;
9820;50;
9820;70;
9820;80;
9820;90;
9821;10;
9821;30;
9821;40;
9821;50;
9821;70;
9821;80;
9821;90;
9822;10;
9822;30;
9822;40;
9822;50;
9822;70;
9822;80;
9822;90;
2209;10;10
2209;30;10
2209;40;10
2210;10;10
2210;30;10
2210;40;10
2211;10;1
2211;30;1
2211;40;1
2212;10;1
2212;30;1
2212;40;1
2213;10;1
2213;30;1
2216;10;10
2216;30;10
2216;40;10
2217;10;10
2217;30;10
2217;40;10
2218;10;10
2218;30;10
2218;40;10
2219;10;10
2219;30;10
2219;40;10
2220;10;10
2220;30;10
2220;40;10
2221;10;1
2221;30;1
2221;40;1
2222;10;1
2222;30;1
2222;40;1
2228;10;10
2228;30;10
2228;40;10
2229;30;1
2230;10;10
2231;10;1
2231;30;1
2231;40;1
2232;10;1
2232;40;1
2233;10;10
2233;30;10
2233;40;10
2234;10;1
2234;30;1
2234;40;1
2235;10;1
2235;30;1
2235;40;1
2236;10;1
2236;30;1
2236;40;1
2237;10;1
2237;30;1
2238;10;1
2238;30;1
2238;40;1
2239;10;1
2239;40;1
4145;40;8
4151;10;8
4151;30;8
4151;40;8
4152;10;8
4152;30;8
4152;40;8
4153;10;8
4153;30;8
4153;40;8
4154;10;8
4154;30;8
4154;40;8
4155;10;99
4155;30;99
4155;40;99
4156;10;99
4156;30;99
4156;40;99
4157;10;99
4157;30;99
4157;40;99
4158;10;99
4158;30;99
4158;40;99
4203;10;99
4203;30;99
4203;40;99
4204;10;99
4204;30;99
4204;40;99
4205;10;99
4205;30;99
4205;40;99
4206;10;99
4206;30;99
4206;40;99
4207;10;99
4207;30;99
4207;40;99
4208;10;99
4208;30;99
4208;40;99
4209;10;99
4210;10;
4210;30;
4210;40;
4211;10;7
4211;30;7
4211;40;7
4212;10;7
4212;30;7
4212;40;7
4213;10;7
4213;30;7
4213;40;7
4214;10;7
4214;30;7
4214;40;7
4215;10;7
4215;30;7
4215;40;7
4216;10;7
4216;30;7
9823;10;
9823;30;
9823;40;
9823;50;
9823;70;
9823;80;
9823;90;
9824;10;
9824;30;
9824;40;
9824;50;
9824;70;
9824;80;
9824;90;
9825;10;
9825;30;
9825;40;
9825;50;
9825;70;
9825;80;
9825;90;
9826;10;
9826;30;
9826;40;
9826;50;
9826;70;
9826;80;
9826;90;
9827;10;
9827;30;
9827;40;
9827;50;
9827;70;
9827;80;
9827;90;
9828;10;
9828;30;
9828;40;
9828;50;
9828;70;
9828;80;
9828;90;
9829;10;
9829;30;
9829;40;
9829;50;
9829;70;
9829;80;
9829;90;
9830;10;
9830;30;
9830;40;
9830;50;
9830;70;
9830;80;
9830;90;
9831;10;
9831;30;
9831;40;
9831;50;
9831;70;
9831;80;
9831;90;
9832;10;
2240;10;1
2241;10;1
2241;30;1
2241;40;1
2242;10;1
2242;30;1
2242;40;1
2243;10;1
2243;30;1
2243;40;1
2244;10;10
2245;30;1
2246;30;1
2247;10;1
2247;30;1
2247;40;1
2248;10;10
2249;10;10
2250;10;1
2250;30;1
2251;10;1
2251;30;1
2251;40;1
2251;70;1
2252;10;1
2252;30;1
2252;40;1
2252;70;1
2254;10;99
2255;10;99
2256;10;99
2256;30;99
2256;40;99
2257;10;
2257;40;
2258;10;1
2259;10;10
2259;30;10
2259;40;10
2260;10;10
2261;10;1
2261;30;1
2261;40;1
2262;10;1
2262;30;1
2262;40;1
2263;10;10
2264;10;10
2265;10;10
2266;10;10
2266;30;10
2266;40;10
2267;10;10
2267;30;10
2267;40;10
2268;10;10
2268;30;10
2268;40;10
2269;10;10
2270;10;10
2271;10;1
2271;30;1
2271;40;1
2272;10;1
9832;30;
9832;40;
9832;50;
9832;70;
9832;80;
9832;90;
9833;10;
9833;30;
9833;40;
9833;50;
9833;70;
9833;80;
9833;90;
9834;10;
9834;30;
9834;40;
9834;50;
9834;70;
9834;80;
9834;90;
9835;10;
9835;30;
9835;40;
9835;50;
9835;70;
9835;80;
9835;90;
9836;10;
9836;30;
9836;40;
9836;50;
9836;70;
9836;80;
9836;90;
9837;10;
9837;30;
9837;40;
9837;50;
9837;70;
9837;80;
9837;90;
9838;10;
9838;30;
9838;40;
9838;50;
9838;70;
9838;80;
9838;90;
9839;10;
9839;30;
9839;40;
9839;50;
9839;70;
9839;80;
9839;90;
9840;10;
9840;30;
9840;40;
9840;50;
9840;70;
9840;80;
9840;90;
9841;10;
9841;30;
2272;30;1
2272;40;1
2273;10;1
2273;30;1
2273;40;1
2274;10;1
2274;30;1
2274;40;1
2275;10;1
2275;30;1
2275;40;1
2276;10;10
2276;30;10
2276;40;10
2277;10;10
2277;30;10
2277;40;10
2278;10;10
2278;30;10
2278;40;10
2279;10;99
2279;30;99
2279;40;99
2280;10;99
2281;10;99
2283;10;1
2284;10;1
2285;10;1
2286;10;99
2286;30;99
2286;40;99
2287;10;99
2287;30;99
2287;40;99
2294;10;99
2295;10;99
2315;10;1
2315;30;1
2315;40;1
2321;10;99
2331;10;99
2331;40;99
2332;10;99
2332;30;99
2332;40;99
2333;10;99
2333;30;99
2333;40;99
2334;10;99
2334;40;99
2335;10;99
2335;30;99
2335;40;99
2336;10;99
2336;30;99
2337;10;99
2337;30;99
2337;40;99
2338;10;99
2338;30;99
2338;40;99
2339;10;99
2339;30;99
2339;40;99
9841;40;
9841;50;
9841;70;
9841;80;
9841;90;
9842;10;
9842;30;
9842;40;
9842;50;
9842;70;
9842;80;
9842;90;
9843;10;
9843;30;
9843;40;
9843;50;
9843;70;
9843;80;
9843;90;
9844;10;
9844;30;
9844;40;
9844;50;
9844;70;
9844;80;
9844;90;
9845;10;
9845;30;
9845;40;
9845;50;
9845;70;
9845;80;
9845;90;
9846;10;
9846;30;
9846;40;
9846;50;
9846;70;
9846;80;
9846;90;
9847;10;
9847;30;
9847;40;
9847;50;
9847;70;
9847;80;
9847;90;
9848;10;
9848;30;
9848;40;
9848;50;
9848;70;
9848;80;
9848;90;
9849;10;
9849;30;
9849;40;
9849;50;
9849;70;
9849;80;
9849;90;
9850;10;
9850;30;
9850;40;
2341;10;99
2341;30;99
2341;40;99
2342;10;
2342;40;
2343;10;
2343;40;
2344;10;
2344;40;
2345;10;
2345;40;
2346;10;
2346;40;
2347;10;
2347;40;
2351;10;99
2351;30;99
2351;40;99
2351;70;1
2352;10;99
2352;30;99
2352;40;99
2352;70;1
2353;40;99
2353;70;1
2354;10;1
2354;30;1
2354;40;1
2354;70;1
2355;10;99
2355;30;99
2355;40;99
2355;70;1
2356;10;99
2356;30;99
2356;40;99
2356;70;1
2357;10;99
2357;30;99
2357;40;99
2357;70;1
2358;10;99
2358;30;99
2358;40;99
2358;70;1
2359;10;99
2359;30;99
2359;40;99
2359;70;1
2360;10;99
2360;30;99
2360;40;99
2360;70;1
2361;10;99
2361;30;99
2361;40;99
2361;70;1
2362;10;99
2362;30;99
2362;40;99
2362;70;1
2363;10;99
2363;30;99
2363;40;99
9850;50;
9850;70;
9850;80;
9850;90;
9851;10;
9851;30;
9851;40;
9851;50;
9851;70;
9851;80;
9851;90;
9852;10;
9852;30;
9852;40;
9852;50;
9852;70;
9852;80;
9852;90;
9853;10;
9853;30;
9853;40;
9853;50;
9853;70;
9853;80;
9853;90;
9854;10;
9854;30;
9854;40;
9854;50;
9854;70;
9854;80;
9854;90;
9855;10;
9855;30;
9855;40;
9855;50;
9855;70;
9855;80;
9855;90;
9856;10;
9856;30;
9856;40;
9856;50;
9856;70;
9856;80;
9856;90;
9857;10;
9857;30;
9857;40;
9857;50;
9857;70;
9857;80;
9857;90;
9858;10;
9858;30;
9858;40;
9858;50;
9858;70;
9858;80;
9858;90;
9859;10;
9859;30;
9859;40;
9859;50;
2363;70;1
2364;10;99
2364;30;99
2364;40;99
2364;70;1
2365;10;99
2365;30;99
2365;40;99
2365;70;1
2366;10;99
2366;30;99
2366;40;99
2366;70;1
2367;10;99
2367;30;99
2367;40;99
2367;70;1
2368;10;99
2368;30;99
2368;40;99
2368;70;1
2369;10;99
2369;30;99
2369;40;99
2369;70;1
2371;10;99
2372;10;99
2373;10;99
2380;10;99
2380;30;99
2380;40;99
2381;10;99
2381;30;99
2381;40;99
2382;10;99
2382;30;99
2382;40;99
2383;10;99
2383;30;99
2383;40;99
2384;10;99
2384;30;99
2384;40;99
2385;10;99
2385;30;99
2385;40;99
2386;10;99
2386;30;99
2386;40;99
2387;10;99
2387;30;99
2387;40;99
2388;10;99
2388;30;99
2388;40;99
2389;10;99
2389;30;99
2389;40;99
2391;10;99
2391;30;99
2391;40;99
2391;70;1
2392;10;99
2392;30;99
9859;70;
9859;80;
9859;90;
9860;10;
9860;30;
9860;40;
9860;50;
9860;70;
9860;80;
9860;90;
9861;10;
9861;30;
9861;40;
9861;50;
9861;70;
9861;80;
9861;90;
9862;10;
9862;30;
9862;40;
9862;50;
9862;70;
9862;80;
9862;90;
9863;10;
9863;30;
9863;40;
9863;50;
9863;70;
9863;80;
9863;90;
9864;10;
9864;30;
9864;40;
9864;50;
9864;70;
9864;80;
9864;90;
9865;10;
9865;30;
9865;40;
9865;50;
9865;70;
9865;80;
9865;90;
9866;10;
9866;30;
9866;40;
9866;50;
9866;70;
9866;80;
9866;90;
9867;10;
9867;30;
9867;40;
9867;50;
9867;70;
9867;80;
9867;90;
9868;10;
9868;30;
9868;40;
9868;50;
9868;70;
2392;40;99
2392;70;1
2411;10;
2412;10;
2413;10;
2414;10;
2415;10;
2416;10;
2417;10;
2418;10;
2419;10;
2420;10;
2421;10;
2422;10;
2423;10;
2424;10;
2426;10;
2428;10;10
2501;10;
2502;10;
2503;10;
2504;10;
3101;10;99
3102;10;99
3103;10;99
3103;30;99
3103;40;99
3104;10;99
3104;30;99
3104;40;99
3105;10;99
3105;30;99
3105;40;99
3106;10;99
3106;30;99
3106;40;99
3107;10;99
3107;30;99
3107;40;99
3108;10;99
3108;30;99
3108;40;99
3109;10;99
3109;70;99
3110;10;
3111;10;3
3111;30;3
3111;40;3
3111;70;1
3112;10;3
3112;30;3
3112;40;3
3113;10;3
3113;30;3
3113;40;3
3113;90;2
3115;10;3
3115;30;3
3115;40;3
3116;10;
3116;30;
3116;40;
3116;70;
3117;10;
9868;80;
9868;90;
9869;10;
9869;30;
9869;40;
9869;50;
9869;70;
9869;80;
9869;90;
9870;10;
9870;30;
9870;40;
9870;50;
9870;70;
9870;80;
9870;90;
9871;10;
9871;30;
9871;40;
9871;50;
9871;70;
9871;80;
9871;90;
9872;10;
9872;30;
9872;40;
9872;50;
9872;70;
9872;80;
9872;90;
9873;10;
9873;30;
9873;40;
9873;50;
9873;70;
9873;80;
9873;90;
9874;10;
9874;30;
9874;40;
9874;50;
9874;70;
9874;80;
9874;90;
9875;10;
9875;30;
9875;40;
9875;50;
9875;70;
9875;80;
9875;90;
9876;10;
9876;30;
9876;40;
9876;50;
9876;70;
9876;80;
9876;90;
9877;10;
9877;30;
9877;40;
9877;50;
9877;70;
9877;80;
3117;30;
3117;40;
3117;70;
3118;10;
3119;10;
3120;10;99
3120;30;99
3120;40;99
3120;70;99
3121;10;3
3121;30;3
3121;40;3
3122;10;3
3122;30;3
3122;40;3
3123;10;99
3123;30;99
3123;40;99
3125;10;3
3125;30;3
3125;40;3
3126;10;
3127;10;99
3127;30;99
3127;40;99
3127;50;99
3127;80;99
3128;10;99
3128;30;99
3128;40;99
3128;50;99
3128;80;99
3129;10;99
3129;30;99
3129;40;99
3129;70;99
3130;10;99
3130;30;99
3130;40;99
3130;70;99
3131;10;3
3131;30;3
3131;40;3
3132;10;3
3132;30;3
3132;40;3
3133;10;3
3133;30;3
3133;40;3
3134;10;3
3134;30;3
3134;40;3
3135;10;99
3135;30;99
3135;40;99
3136;10;99
3136;30;99
3136;40;99
3137;10;99
3137;30;99
3137;40;99
3138;10;99
3138;30;99
3138;40;99
4216;40;7
4217;10;
4217;30;
4217;40;
4218;10;
4218;30;
4218;40;
4219;10;7
4219;30;7
4219;40;7
4220;10;
4220;30;
4220;40;
4221;10;7
4221;30;7
4221;40;7
4222;10;7
4222;40;7
4223;10;7
4223;40;7
4224;10;7
4225;10;7
4225;30;7
4225;40;7
4226;10;7
4226;30;7
4226;40;7
4227;10;
4228;10;
4229;10;
4229;30;
4229;40;
4315;40;1
4316;10;1
4316;30;1
4316;40;1
4317;40;1
4318;40;1
4319;40;1
4320;40;1
4321;40;1
4322;40;1
4323;10;1
4323;30;1
4323;40;1
4324;40;1
4325;40;1
4326;10;1
4326;30;1
4326;40;1
4327;10;1
4327;30;1
4327;40;1
4328;10;1
4328;30;1
4328;40;1
4329;10;1
4329;30;1
4329;40;1
4330;40;
4331;10;1
4331;30;1
4331;40;1
4332;40;1
9877;90;
9878;10;
9878;30;
9878;40;
9878;50;
9878;70;
9878;80;
9878;90;
9879;10;
9879;30;
9879;40;
9879;50;
9879;70;
9879;80;
9879;90;
9880;10;
9880;30;
9880;40;
9880;50;
9880;70;
9880;80;
9880;90;
9881;10;
9881;30;
9881;40;
9881;50;
9881;70;
9881;80;
9881;90;
9882;10;
9882;30;
9882;40;
9882;50;
9882;70;
9882;80;
9882;90;
9883;10;
9883;30;
9883;40;
9883;50;
9883;70;
9883;80;
9883;90;
9884;10;
9884;30;
9884;40;
9884;50;
9884;70;
9884;80;
9884;90;
9885;10;
9885;30;
9885;40;
9885;50;
9885;70;
9885;80;
9885;90;
9886;10;
9886;30;
9886;40;
9886;50;
9886;70;
9886;80;
9886;90;
3139;10;
3140;10;99
3140;30;99
3140;40;99
3141;10;99
3141;30;99
3141;40;99
3142;10;99
3142;30;99
3142;40;99
3143;10;99
3143;30;99
3143;40;99
3144;10;99
3210;10;99
3211;10;4
3211;30;4
3211;40;4
3211;70;1
3211;90;2
3213;10;99
3216;10;99
3221;10;4
3221;30;4
3221;40;4
3222;10;4
3222;30;4
3222;40;4
3222;70;1
3222;90;2
3223;10;4
3223;30;4
3223;40;4
3223;70;1
3223;90;2
3225;10;4
3225;30;4
3225;40;4
3300;10;99
3301;10;99
3302;10;99
3303;10;99
3304;10;99
3305;10;99
3306;10;99
3307;10;99
3308;10;99
3308;30;99
3308;40;99
3309;10;99
3309;30;99
3309;40;99
3310;10;99
3310;40;99
3311;10;5
3311;30;5
3311;40;5
3312;10;5
3312;30;5
3312;40;5
3313;10;5
3313;30;5
3313;40;5
3313;90;2
4339;10;1
4339;30;1
4339;40;1
4341;40;1
4341;80;1
4342;10;1
4342;40;1
4343;10;1
4343;40;1
4351;40;1
4352;10;1
4352;40;1
4353;10;1
4353;40;1
4353;70;1
4359;10;99
4359;40;99
4360;10;99
4360;40;99
4361;10;99
4361;40;99
4363;10;99
4363;40;99
4364;10;99
4364;40;99
4365;10;99
4365;40;99
4366;10;99
4366;40;99
4367;10;99
4367;40;99
4368;10;99
4368;40;99
4369;10;99
4369;40;99
4370;10;99
4370;40;99
4371;10;1
4372;10;1
4373;10;1
4374;10;99
4375;10;1
4376;10;1
4377;10;1
4378;10;1
4378;40;1
4379;10;99
4380;10;99
4381;10;2
4381;30;2
4381;40;2
4382;10;2
4382;30;2
4382;40;2
4392;10;1
4393;10;1
4394;10;1
4395;10;1
4396;10;1
4397;10;1
4411;10;1
4411;30;1
4411;40;1
4412;10;1
9887;10;
9887;30;
9887;40;
9887;50;
9887;70;
9887;80;
9887;90;
9888;10;
9888;30;
9888;40;
9888;50;
9888;70;
9888;80;
9888;90;
9889;10;
9889;30;
9889;40;
9889;50;
9889;70;
9889;80;
9889;90;
9890;10;
9890;30;
9890;40;
9890;50;
9890;70;
9890;80;
9890;90;
9891;10;
9891;30;
9891;40;
9891;50;
9891;70;
9891;80;
9891;90;
9892;10;
9892;30;
9892;40;
9892;50;
9892;70;
9892;80;
9892;90;
9893;10;
9893;30;
9893;40;
9893;50;
9893;70;
9893;80;
9893;90;
9894;10;
9894;30;
9894;40;
9894;50;
9894;70;
9894;80;
9894;90;
9895;10;
9895;30;
9895;40;
9895;50;
9895;70;
9895;80;
9895;90;
9896;10;
3314;10;5
3314;30;5
3314;40;5
3315;10;5
3315;30;5
3315;40;5
3316;10;5
3316;30;5
3316;40;5
3317;10;5
3317;30;5
3317;40;5
3318;10;5
3318;30;5
3318;40;5
3319;10;5
3319;30;5
3319;40;5
3320;10;5
3320;30;5
3320;40;5
3321;30;5
3322;10;5
3322;30;5
3322;40;5
3322;90;
3323;10;5
3323;30;5
3323;40;5
3324;10;5
3324;30;5
3324;40;5
3325;10;5
3325;30;5
3325;40;5
3326;10;5
3326;30;5
3326;40;5
3327;10;5
3327;30;5
3327;40;5
3328;10;5
3328;30;5
3328;40;5
3329;10;5
3330;10;99
3330;30;99
3330;40;99
3331;10;5
3331;30;5
3331;90;2
3332;10;5
3332;30;5
3332;90;2
3333;10;5
3333;90;2
3334;10;99
3334;30;99
3334;90;99
3335;10;99
3335;30;99
3335;90;99
3336;10;99
3336;30;99
4413;10;1
4413;40;1
4414;10;1
4415;10;1
4416;10;1
4416;30;1
4417;10;1
4419;10;1
4419;30;1
4419;40;1
4501;10;1
4501;30;1
4501;70;1
4501;90;2
4511;50;1
4512;50;99
4513;50;99
4514;50;99
4515;50;99
4611;10;1
4611;30;1
4612;10;1
5101;10;6
5101;30;6
5101;40;6
5102;10;6
5102;30;6
5102;40;6
5103;10;6
5103;30;6
5103;40;6
5104;10;6
5104;30;6
5104;40;6
5105;10;6
5105;30;6
5105;40;6
5106;10;6
5106;30;6
5106;40;6
5107;10;6
5107;30;6
5107;40;6
5108;10;
5108;30;
5109;10;
5109;30;
5110;10;
5110;30;
5111;10;
5111;30;
5112;10;
5112;30;
5113;10;
5113;30;
5114;10;
5114;30;
5115;10;
5115;30;
5116;10;
5116;30;
5117;10;
5117;30;
5118;10;
9896;30;
9896;40;
9896;50;
9896;70;
9896;80;
9896;90;
9897;10;
9897;30;
9897;40;
9897;50;
9897;70;
9897;80;
9897;90;
9898;10;
9898;30;
9898;40;
9898;50;
9898;70;
9898;80;
9898;90;
9899;10;
9899;30;
9899;40;
9899;50;
9899;70;
9899;80;
9899;90;
9901;70;1
9902;70;1
9911;70;1
9912;70;1
9999;10;99
9999;30;99
9999;40;99
9999;50;99
9999;70;99
9999;80;99
9999;90;99
3400;10;99
3401;10;99
1085;10;99
1085;30;99
1085;40;99
2180;10;99
3371;10;99
3372;10;99
2297;10;99
2297;40;99
2298;10;99
2298;40;99
1940;10;99
4230;10;99
4231;10;99
4232;10;99
4232;30;99
4232;40;99
4233;10;99
4233;30;99
4233;40;99
1077;10;99
1077;30;99
1077;40;99
1067;10;99
1067;30;99
3336;40;99
3337;10;99
3338;10;99
3339;10;99
3340;10;99
3341;10;5
3341;30;5
3341;40;5
3342;10;5
3342;30;5
3342;40;5
3343;10;5
3343;30;5
3343;40;5
3344;10;99
3344;30;99
3344;40;99
3345;10;99
3345;30;99
3345;40;99
3346;10;99
3346;30;99
3346;40;99
3347;10;99
3347;30;99
3347;40;99
3348;10;99
3348;30;99
3348;40;99
3349;10;99
3349;30;99
3349;40;99
3350;10;99
3350;40;99
3351;10;5
3351;30;5
3351;40;5
3352;10;5
3352;30;5
3352;40;5
3353;10;5
3353;30;5
3353;40;5
3354;10;5
3354;30;5
3354;40;5
3355;10;5
3355;30;5
3355;40;5
3356;10;5
3356;30;5
3356;40;5
3357;10;
3357;30;
3357;40;
3358;10;99
3358;30;99
3358;40;99
3359;10;99
3359;30;99
3360;10;99
3360;30;99
3361;10;1
3362;10;1
5118;30;
5119;10;
5119;30;
5120;10;
5120;30;
5121;10;99
5121;30;99
5121;40;99
5122;10;99
5122;30;99
5122;40;99
5123;10;99
5123;30;99
5123;40;99
5124;10;99
5124;30;99
5124;40;99
5125;10;99
5125;30;99
5125;40;99
5126;10;99
5126;30;99
5126;40;99
5127;10;99
5127;30;99
5127;40;99
5128;10;99
5128;30;99
5128;40;99
5129;10;99
5129;30;99
5129;40;99
5130;10;99
5130;30;99
5130;40;99
5201;10;6
5201;30;6
5201;40;6
5202;10;6
5202;30;6
5202;40;6
5203;10;6
5203;30;6
5203;40;6
5204;10;6
5204;30;6
5204;40;6
5205;10;
5205;30;
5206;10;
5206;30;
5401;10;6
5401;30;6
5401;40;6
5402;10;99
5402;30;99
5402;40;99
5403;10;99
5403;30;99
5403;40;99
6011;10;1
6011;40;1
6012;10;1
6012;40;1
1067;40;99
1081;10;99
1081;30;99
1081;40;99
1082;10;99
1082;30;99
1082;40;99
1083;10;99
1083;30;99
1083;40;99
1084;10;99
1084;30;99
1084;40;99
1080;10;99
1080;30;99
1080;40;99
1079;10;99
1079;30;99
1079;40;99
1078;10;99
1078;30;99
1078;40;99
9201;10;99
9202;10;99
1068;10;99
1068;30;99
1068;40;99
1069;10;99
1069;30;99
1069;40;99
1070;10;99
1070;30;99
1070;40;99
1071;10;99
1071;30;99
1071;40;99
1072;10;99
1072;30;99
1072;40;99
1073;10;99
1073;30;99
1073;40;99
1074;10;99
1074;30;99
1074;40;99
1075;10;99
1075;30;99
1075;40;99
2309;10;99
2309;30;99
2309;40;99
1066;10;99
1065;10;99
2110;10;99
2110;30;99
2110;40;99
2199;10;99
2199;30;99
2199;40;99
2148;10;99
2148;30;99
2148;40;99
2149;10;99
2149;30;99
3363;10;1
3364;10;99
3364;30;99
3364;40;99
3364;90;99
3365;10;99
3365;30;99
3365;40;99
3365;90;99
3366;10;99
3366;30;99
3366;40;99
3366;90;99
3367;10;99
3367;40;99
3368;10;99
3368;30;99
3368;40;99
3369;10;99
3369;30;99
3369;40;99
3370;10;99
3370;30;99
3370;40;99
3375;10;
3375;30;
3376;10;99
3376;30;99
3376;40;99
3377;10;99
3378;10;99
3379;10;99
3379;30;99
3379;90;99
3380;10;
3380;30;
3380;40;
3381;10;5
3381;30;5
3381;40;5
3382;10;
3383;10;
3383;30;
3383;40;
3384;10;
3384;30;
3384;40;
3385;10;
3385;30;
3385;40;
3386;10;
3386;30;
3386;40;
3386;90;
3387;10;
3387;30;
3387;40;
3388;10;
3388;30;
3388;40;
3389;10;
3389;30;
3389;40;
3390;10;
6013;10;1
6014;10;1
6014;30;1
6111;10;1
6111;40;1
6112;10;1
6113;40;1
6114;40;1
6115;10;1
6115;40;1
6116;10;1
6117;10;1
6117;40;1
6118;10;1
6118;40;1
6120;40;1
6121;30;1
6122;30;1
6123;30;1
6124;30;1
6125;30;99
6126;30;99
6127;30;99
6128;30;99
6129;30;99
6131;10;1
6131;40;1
6132;10;1
6132;40;1
6133;40;1
6134;10;99
6135;10;99
6191;10;
6191;40;
6208;30;99
6209;30;99
6210;30;99
6211;30;99
6212;30;1
6213;30;1
6214;30;99
6215;30;99
6221;30;1
6222;30;1
6231;30;99
6232;30;99
6233;30;99
6234;30;1
6235;30;1
6236;30;99
6237;30;1
6238;30;1
6239;10;99
6241;10;
6242;10;
6251;30;1
6252;30;1
6253;30;1
6254;30;1
6257;30;1
6258;30;1
6261;30;1
6262;30;1
6311;30;1
2149;40;99
3373;10;99
3373;30;99
3373;40;99
2253;10;99
2253;30;99
2253;40;99
2299;10;99
2299;30;99
2299;40;99
2300;10;99
2300;30;99
2300;40;99
3406;10;99
3407;10;99
9737;70;99
3144;30;99
1064;10;99
1063;10;99
1062;10;99
1924;30;99
3118;30;99
1814;30;99
2288;10;99
2288;30;99
2288;40;99
2289;10;99
2289;30;99
2289;40;99
1959;10;99
1959;30;99
1959;40;99
2130;10;99
1076;10;99
1076;30;99
1076;40;99
1161;30;99
4234;10;99
2101;30;99
3145;10;99
3145;30;99
3145;40;99
3146;10;99
3146;30;99
3146;40;99
3147;10;99
3147;30;99
3147;40;99
3148;10;99
3148;30;99
3148;40;99
3149;10;99
3149;30;99
3149;40;99
1439;30;99
3150;10;99
2281;40;99
3151;10;99
3151;30;99
3151;40;99
3152;10;99
3152;30;99
3152;40;99
3153;10;99
3390;30;
3390;40;
3390;90;
3391;10;
3392;10;
3393;10;
3394;10;
3395;10;
3396;10;99
3397;10;99
3398;10;99
3399;10;
3399;30;
3402;10;99
3402;30;99
3402;40;99
3403;10;99
3405;10;99
3411;10;5
3411;30;5
3411;40;5
3412;10;5
3412;30;5
3412;40;5
3413;10;5
3413;30;5
3414;10;5
3414;30;5
3414;40;5
3500;10;99
3500;30;99
3500;40;99
3501;10;99
3501;30;99
3501;40;99
3502;10;99
3502;30;99
3502;40;99
3503;10;99
3503;30;99
3503;40;99
3504;10;99
3504;30;99
3504;40;99
3505;10;99
3505;30;99
3505;40;99
3506;10;99
3506;30;99
3506;40;99
3507;10;99
3507;30;99
3507;40;99
3508;10;99
3508;30;99
3508;40;99
3509;10;99
3509;30;99
3509;40;99
3510;10;99
3510;30;99
3510;40;99
3511;10;6
3511;30;6
6312;30;1
7111;80;1
7112;80;1
7113;80;1
7119;80;1
8111;40;1
8112;40;1
8113;40;1
8114;40;1
8115;40;1
8116;40;1
8117;10;
8117;30;
8117;40;
8117;50;
8117;70;
8117;80;
8117;90;
8118;10;
8118;30;
8118;40;
8118;50;
8118;70;
8118;80;
8118;90;
8119;10;
8119;30;
8119;40;
8119;50;
8119;70;
8119;80;
8119;90;
8120;10;
8120;30;
8120;40;
8120;50;
8120;70;
8120;80;
8120;90;
8121;40;
8222;40;1
8223;40;1
8224;40;1
8226;40;1
8227;40;1
9111;70;1
9112;70;1
9113;70;1
9114;70;1
9115;70;1
9116;70;1
9118;70;1
9119;70;1
9121;70;1
9122;70;1
9123;70;1
9129;70;1
9131;70;1
9132;70;1
9133;70;1
9134;70;1
9141;70;1
9142;70;1
9143;70;1
3153;30;99
3153;40;99
3154;10;99
3154;30;99
3154;40;99
3155;10;99
3155;30;99
3155;40;99
3156;10;99
3156;30;99
3156;40;99
3157;10;99
3157;30;99
3157;40;99
2290;10;99
1060;10;99
1060;30;99
1060;40;99
1061;10;99
1061;30;99
1061;40;99
3124;10;99
3124;30;99
3124;40;99
1058;10;99
1059;10;99
9513;90;99
9514;90;99
3158;10;99
3158;30;99
3158;40;99
3159;10;99
3159;30;99
3159;40;99
3160;10;99
3160;30;99
3160;40;99
3161;10;99
3161;30;99
3161;40;99
2100;10;99
2100;30;99
2100;40;99
9203;10;99
9203;30;99
9201;30;99
9202;30;99
9201;40;99
9202;40;99
9203;40;99
3597;10;99
3597;30;99
3597;40;99
3408;10;99
3162;10;99
3162;30;99
3162;40;99
3163;10;99
3163;30;99
3163;40;99
3164;10;99
3164;30;99
3164;40;99
3165;10;99
3511;40;6
3512;10;6
3512;30;6
3512;40;6
3513;10;6
3513;30;6
3513;40;6
3514;10;6
3514;30;6
3514;40;6
3515;10;6
3515;30;6
3515;40;6
3516;10;6
3516;30;6
3516;40;6
3517;10;6
3517;30;6
3518;10;6
3518;30;6
3518;40;6
3519;10;99
3519;30;99
3519;40;99
3520;10;99
3520;30;99
3520;40;99
3521;10;6
3521;30;6
3521;40;6
3522;10;6
3522;30;6
3522;40;6
3523;10;
3523;30;
3524;10;
3524;30;
3525;10;
3525;30;
3526;10;
3526;30;
3527;10;
3527;30;
3528;10;
3528;30;
3529;10;
3529;30;
3530;10;
3530;30;
3531;10;6
3531;30;6
3531;40;6
3532;10;6
3532;30;6
3532;40;6
3533;10;6
3533;30;6
3533;40;6
3534;10;6
3534;30;6
3534;40;6
3535;10;6
3535;30;6
3535;40;6
9144;70;1
9161;70;1
9162;70;1
9163;70;1
9164;70;1
9165;70;1
9166;70;1
9167;70;1
9168;70;1
9169;70;2
9170;70;1
9191;70;1
9191;90;2
9201;90;99
9202;90;99
9203;90;99
9204;90;99
9205;90;99
9206;90;99
9207;90;99
9211;70;1
9211;90;2
9221;90;2
9311;90;2
9313;90;2
9411;90;2
9421;90;2
9422;90;2
9423;90;2
9429;90;2
9431;90;2
9432;90;
9433;90;
9434;10;99
9434;90;99
9435;90;99
9436;90;99
9511;70;1
9511;90;2
9512;90;2
9521;70;1
9566;90;2
9567;90;2
9568;90;2
9569;90;
9570;90;99
9701;70;1
9702;70;1
9703;70;1
9704;70;1
9705;70;1
9706;70;1
9707;70;1
9708;70;1
9709;70;1
9710;70;1
9711;70;1
9713;70;1
9714;70;1
9715;70;1
9716;70;1
9717;70;1
9718;70;1
9719;70;1
3165;30;99
3165;40;99
1201;10;99
1201;30;99
1201;40;99
1202;10;99
1202;30;99
1202;40;99
1056;10;99
1056;30;99
1056;40;99
1057;10;99
1057;30;99
1057;40;99
1054;10;99
1055;10;99
3416;10;99
3416;30;99
3416;40;99
3404;10;99
3404;30;99
3410;10;99
3410;30;99
3410;40;99
3415;10;99
3415;30;99
3415;40;99
3418;10;99
3419;10;99
3536;10;6
3536;30;6
3536;40;6
3537;10;6
3537;30;6
3537;40;6
3538;10;6
3538;30;6
3538;40;6
3539;10;6
3539;30;6
3539;40;6
3540;10;99
3540;30;99
3540;40;99
3541;10;6
3541;30;6
3541;40;6
3541;70;1
3542;10;6
3542;30;6
3542;40;6
3543;10;6
3543;30;6
3543;40;6
3544;10;6
3544;30;6
3544;40;6
3545;10;6
3545;30;6
3545;40;6
3547;10;6
3547;70;1
3548;10;6
3548;30;6
3548;40;6
3549;10;99
3549;40;99
3550;10;99
3550;30;99
3550;40;99
3551;10;6
3551;30;6
3551;40;6
3552;10;6
3552;30;6
3552;40;6
3553;10;
3553;30;
3554;10;
3554;30;
3555;10;
3555;30;
3556;10;
3556;30;
3557;10;
3557;30;
3558;10;99
3558;30;99
3558;40;99
3559;10;99
3559;30;99
3559;40;99
3560;10;99
9720;70;99
9721;70;1
9722;70;1
9724;70;
9725;70;
9726;70;99
9727;70;99
9729;70;99
9730;70;99
9731;70;1
9732;70;1
9733;70;99
9734;70;99
9735;70;99
9736;70;99
9741;70;1
9742;70;1
9743;70;1
9744;70;1
9751;70;1
9752;70;1
9761;70;
9762;70;
9763;70;
9764;70;
9765;70;
9766;70;
9767;70;
9768;70;
9769;70;
9771;70;
9772;70;
9773;70;
9774;70;
9775;70;
9776;70;
9777;70;
9778;70;
9801;10;
9801;30;
9801;40;
9801;50;
9801;70;
9801;80;
9801;90;
9802;10;
9802;30;
9802;40;
9802;50;
9802;70;
9802;80;
9802;90;
9803;10;
9803;30;
9803;40;
9803;50;
9803;70;
9803;80;
9803;90;
9804;10;
9804;30;
9804;40;
9804;50;
9804;70;
3560;30;99
3560;40;99
3561;10;6
3561;30;6
3561;40;6
3562;10;99
3562;30;99
3562;40;99
3563;10;99
3563;30;99
3563;40;99
3564;10;99
3564;30;99
3564;40;99
3565;10;99
3565;30;99
3565;40;99
3566;10;99
3566;30;99
3566;40;99
3567;10;99
3567;30;99
3567;40;99
3568;10;99
3568;30;99
3568;40;99
3569;10;99
3569;30;99
3569;40;99
3570;10;99
3570;30;99
3570;40;99
3572;10;6
3572;30;6
3572;40;6
3573;10;6
3574;10;6
3574;30;6
3574;40;6
3575;10;99
3575;30;99
3575;40;99
3576;10;99
3576;30;99
3578;10;99
3578;30;99
3578;40;99
3579;10;99
3579;30;99
3579;40;99
3580;10;99
3580;30;99
3580;40;99
3581;10;6
3581;30;6
3581;40;6
3582;10;6
3582;30;6
3582;40;6
3583;10;6
3583;30;6
3583;40;6
3584;10;99
3584;30;99
9804;80;
9804;90;
9805;10;
9805;30;
9805;40;
9805;50;
9805;70;
9805;80;
9805;90;
9806;10;
9806;30;
9806;40;
9806;50;
9806;70;
9806;80;
9806;90;
9807;10;
9807;30;
9807;40;
9807;50;
9807;70;
9807;80;
9807;90;
9808;10;
9808;30;
9808;40;
9808;50;
9808;70;
9808;80;
9808;90;
9809;10;
9809;30;
9809;40;
9809;50;
9809;70;
9809;80;
9809;90;
9810;10;
9810;30;
9810;40;
9810;50;
9810;70;
9810;80;
9810;90;
9811;10;
9811;30;
9811;40;
9811;50;
9811;70;
9811;80;
9811;90;
9812;10;
9812;30;
9812;40;
9812;50;
9812;70;
9812;80;
9812;90;
9813;10;
9813;30;
9813;40;
9813;50;
9813;70;
9813;80;
