PRS_NAT;SFJ_TYP
ANT;A
ATU;U
D01;D
D02;D
D03;D
D04;D
D05;D
D06;D
D07;D
D08;D
D09;D
D10;D
D11;D
D12;D
D13;D
D14;D
D15;D
D16;D
D17;D
D18;D
D19;D
D20;D
D21;D
D22;D
D23;D
D24;D
DIP;D
DTP;D
FJS;I
IMD;I
IPD;I
NN1;N
NN2;N
NN3;N
PO1;P
PO2;P
PO3;P
PO4;P
RAP;T
REA;R
REP;E
SDC;K
SRA;R
SRC;C
SSC;C
STF;F
TDE;V
TSE;W
