name,description,group,index,nb_vars
T_MCOaaA,Acte CCAM,5,0,1
T_MCOaaB,Description du Séjour,5,1,1
T_MCOaaBPHN,B et P hors nomenclature (extension de fichier .bphn),5,2,1
T_MCOaaC,NIR patient et Dates de soin,5,3,1
T_MCOaaCSTC,ACE NIR/date,5,4,1
T_MCOaaD,Diagnostic associé,5,5,1
T_MCOaaDIALP,Fich comp dialyse péritonéale en sus,5,6,1
T_MCOaaDMIP,Fich comp dmi en sus,5,7,1
T_MCOaaE,Etablissement,5,8,1
T_MCOaaFA,OQN Entete facture,5,9,1
T_MCOaaFASTC,ACE Entete facture,5,10,1
T_MCOaaFB,OQN Prestation,5,11,1
T_MCOaaFBSTC,ACE Prestation,5,12,1
T_MCOaaFC,OQN Honoraire,5,13,1
T_MCOaaFCSTC,ACE Honoraire,5,14,1
T_MCOaaFH,OQN medicament en sus,5,15,1
T_MCOaaFHSTC,ACE medicament en sus,5,16,1
T_MCOaaFI,OQN Interruption séjour,5,17,1
T_MCOaaFL,OQN biologie NABM,5,18,1
T_MCOaaFLSTC,ACE biologie NABM,5,19,1
T_MCOaaFM,OQN actes CCAM,5,20,1
T_MCOaaFMSTC,ACE actes CCAM,5,21,1
T_MCOaaFP,OQN DMI en sus,5,22,1
T_MCOaaFPSTC,ACE DMI en sus,5,23,1
T_MCOaaGVxxxx,Table de passage en version de GHM à partir de mars de l'année suivante,5,24,1
T_MCOaaIVG,Fich comp IVG,5,25,1
T_MCOaaLEG,Fichier donnant toutes les erreurs détectées par la fonction groupage,5,26,1
T_MCOaaMED,Fich comp medicament en sus,5,27,1
T_MCOaaMEDAPAC,Fich comp médicament soumis à autorisation temporaire d'utilisation,5,28,1
T_MCOaaMEDATU,Fich comp médicament soumis à autorisation temporaire d'utilisation,5,29,1
T_MCOaaMEDTHROMBO,Fich comp Méd. thrombolytiques pour le traitement des AVC ischémiques ,5,30,1
T_MCOaaORP,Fich comp maladie orpheline,5,31,1
T_MCOaaPIE,Fich comp prestation inter établissement,5,32,1
T_MCOaaPIP,Fich comp prothèse PIP,5,33,1
T_MCOaaPORG,Fich comp prélévement d'organe,5,34,1
T_MCOaaSTC,Prise en charge,5,35,1
T_MCOaaSUP_BPHNA,Fich sup BP HN nb,5,36,1
T_MCOaaSUP_BPHNC,Fich sup BP HN etb demandeur,5,37,1
T_MCOaaSUP_BPHNP,Fich sup BP HN etb producteur,5,38,1
T_MCOaaSUP_CES,Fich sup ACE Consultations externes Spécifiques,5,39,1
T_MCOaaSUP_DSC,Tests diagnostiques Covid,5,40,1
T_MCOaaSUP_FFM,Fich sup FFM (forfait petit matériel),5,41,1
T_MCOaaSUP_IUM,Fichier d’information des UM,5,42,1
T_MCOaaSUP_LACT,Fich sup lactarium,5,43,1
T_MCOaaSUP_MKP,Vaccination Monkeypox,5,44,1
T_MCOaaSUP_PCR,Tests PCR ,5,45,1
T_MCOaaSUP_PPCO,Fich sup Primo prescription de chimiothérapie orale,5,46,1
T_MCOaaSUP_RIHND,Recueil du RIHN/LC : établissement demandeur (payeur),5,47,1
T_MCOaaSUP_RIHNP,Recueil du RIHN/LC : établissement producteur,5,48,1
T_MCOaaSUP_SMUR,Fich sup SMUR,5,49,1
T_MCOaaSUP_TIE,Fichier d’information Transports inter-établissements,5,50,1
T_MCOaaSUP_USMP,Fich sup Médicaments dispensés en USMP (Unité Sanitaire en Milieu Pénitentiaire),5,51,1
T_MCOaaSUP_VAC , Table Vaccins,5,52,1
T_MCOaaTRPT,Fich comp Transports intra et inter établissements ,5,53,1
T_MCOaaUM,Unité médicale,5,54,1
T_MCOaaUPGV,Types d'autorisations d'unités médicales à portée globale valides,5,55,1
T_MCOaaVALO,Valorisation des séjours,5,56,1
T_MCOaaVALOACE,Valorisation des actes et consultations externes,5,57,1
T_MCOaaZ,Fich comp radiothérapie,5,58,1
T_SUPaaALD,Alternatives à la dialyse (extension de fichier .ald),5,59,1
T_SUPaaATU,Passage aux urgences (extension de fichier .atu) ,5,60,1
T_SUPaaBPHN,B et P hors nomenclature (extension de fichier .bphn),5,61,1
T_SUPaaDMI,Dispositifs médicaux implantables (extension de fichier .dmi),5,62,1
T_SUPaaFFM,Forfait petit matériel (extension de fichier .ffm),5,63,1
T_SUPaaIVG,IVG (extension de fichier .ivg),5,64,1
T_SUPaaMON,Molécules onéreuses (extension de fichier .mon),5,65,1
T_SSRaaA,Acte CCAM,7,66,1
T_SSRaaB,Description du Séjour,7,67,1
T_SSRaaC,NIR patient et Dates de soin,7,68,1
T_SSRaaCCAM,Acte CCAM,7,69,1
T_SSRaaCCAR,classification acte de réadaptation,7,70,1
T_SSRaaCMC,Catégories Majeures de diagnostics,7,71,1
T_SSRaaCSARR,actes du Catalogue spécifique des actes de rééducation et réadaptation,7,72,1
T_SSRaaCSTC,ACE NIR/date,7,73,1
T_SSRaaD,diagnostic associé,7,74,1
T_SSRaaDIALP,Fich comp dialyse péritonéale en sus,7,75,1
T_SSRaaE,Etablissement,7,76,1
T_SSRaaFA,OQN Entete facture,7,77,1
T_SSRaaFASTC,ACE Entete facture,7,78,1
T_SSRaaFB,OQN Prestation,7,79,1
T_SSRaaFBSTC,ACE Prestation,7,80,1
T_SSRaaFC,OQN Honoraire,7,81,1
T_SSRaaFCSTC,ACE Honoraire,7,82,1
T_SSRaaFH,OQN med en sus,7,83,1
T_SSRaaFHSTC,Prestations Hospitalières Médicaments,7,84,1
T_SSRaaFI,OQN Interruption séjour,7,85,1
T_SSRaaFL,OQN actes de biologie (issus de la NABM),7,86,1
T_SSRaaFLSTC,ACE actes de biologie (issus de la NABM),7,87,1
T_SSRaaFM,OQN actes CCAM,7,88,1
T_SSRaaFMSTC,ACE actes CCAM,7,89,1
T_SSRaaFP,OQN DMI en sus,7,90,1
T_SSRaaFPSTC,Prestations Hospitalières Prothèses,7,91,1
T_SSRaaGHJ,table des Groupes de Morbidité Dominante,7,92,1
T_SSRaaGME,GME,7,93,1
T_SSRaaLEG,Erreurs détectées par la fonction groupage,7,94,1
T_SSRaaMED,Med en sus,7,95,1
T_SSRaaMEDAPAC,médicaments sous AAP/AAC,7,96,1
T_SSRaaMEDATU,Med à autorisation temporaire d'utilisation,7,97,1
T_SSRaaS,synthese,7,98,1
T_SSRaaSTC,facturation patient DGF,7,99,1
T_SSRaaSUP_DSC,Table Tests diagnostiques Covid,7,100,1
T_SSRaaSUP_IUM,Fichier d’information des UM,7,101,1
T_SSRaaSUP_TIE,Fichier d’information Transports inter-établissements,7,102,1
T_SSRaaSUP_VAC,Table Vaccins,7,103,1
T_SSRaaTRPT,Fich comp Transports intra et inter établissements ,7,104,1
T_SSRaaVALO,Valorisation des séjours,7,105,1
T_HADaaA,Table des actes,6,106,1
T_HADaaB,Table des Résumés Anonyme Par Sous-Séquence (RAPSS),6,107,1
T_HADaaC,Table des NIR foinisé deux fois et date entrè/sortie complètes,6,108,1
T_HADaaD,Table des diagnostics associés,6,109,1
T_HADaaDMPA,Table des diagnostics liés au MPA (mode de prise en charge associé),6,110,1
T_HADaaDMPP,Table des diagnostics liés au MPP (mode de prise en charge principal),6,111,1
T_HADaaE,Table des Etablissements,6,112,1
T_HADaaEHPA,Table des conventions HAD-EHPA,6,113,1
T_HADaaFA,TableFA : Table des RSFA début de facture des établissements ex-OQN,6,114,1
T_HADaaFB,Table FB : Table des RSFA facture des établissements ex-OQN,6,115,1
T_HADaaFC,Table FC : Table des RSFA des honoraires des établissements ex-OQN,6,116,1
T_HADaaFH,Table FH : Table des RSFA des Médicaments en sus des établissements ex-OQN,6,117,1
T_HADaaFI,Table FI : Table des RSFA interruption de séjour des établissements ex-OQN,6,118,1
T_HADaaFL,Table FL : Table des actes de biologie (issus de la NABM) des établissements ex-OQN,6,119,1
T_HADaaFM,Table FM : Table des RSFA des actes CCAM des établissements ex-OQN,6,120,1
T_HADaaFP,Table FP : Table des RSFA des LPP/DMI en sus des établissements ex-OQN,6,121,1
T_HADaaGJ,Table de passage de Finess,6,122,1
T_HADaaGRE,Table des GHT (groupage établissement),6,123,1
T_HADaaGRP,Table des GHT et des GHPC (groupage paprica),6,124,1
T_HADaaLEG,Fichier donnant toutes les erreurs détectées par la fonction groupage (LEG),6,125,1
T_HADaaMED,Table Molécules onéreuses (fichier COMP),6,126,1
T_HADaaMEDAPAC,Médicaments sous AAP/AAC,6,127,1
T_HADaaMEDATU,Fich comp médicament soumis à autorisation temporaire d'utilisation,6,128,1
T_HADaaMEDCHL,Fich comp Médicament coûteux hors liste en sus et hors ATU,6,129,1
T_HADaaMON,Fichier de déclaration agrégée d'activité (FICHSUP) sur les Molécules onéreuses,6,130,1
T_HADaaS,Synthèses des Résumés Anonyme Par Sous-Séquence,6,131,1
T_HADaaSTC,"Prise en charge par l'AM de chaque séjour, pour les établissements valorisés STC ",6,132,1
T_HADaaSUP_DSC,Table Tests diagnostiques Covid,6,133,1
T_HADaaSUP_PREADMI, (Evaluations anticipées pour les patients résidant en EHPAD ),6,134,1
T_HADaaVALO,HAD Valorisation,6,135,1
DA_PRA_R,Table Référentiel des professionnels de santé (périmètre SNDS),1,136,1
DE_DEP_F,Table des dépistages COVID-19,1,137,1
IR_ACS_R,Table historique des affiliations à l'aide à la complémentaire santé,1,138,1
IR_BEN_R,Table du Référentiel des bénéficiaires,1,139,1
IR_ESM_R,Table des bénéficiaires en Etablissements Médico-Sociaux,1,140,1
IR_ETM_R,Table historique des exonérations du ticket modérateur liées à la personne,1,141,1
IR_IMB_R,Table du Référentiel médicalisé,1,142,1
IR_MAT_R,Table historique de la maternité,1,143,1
IR_MTT_R,Table historique des médecins traitants,1,144,1
IR_ORC_R,Table historique des affiliations à un organisme complémentaire,1,145,1
IR_VAC_F,Table des patients vaccinés contre le COVID-19,1,146,1
KI_CCI_R,Table des circonstances et de la cause initiale du décès,3,147,1
KI_ECD_R,Table de l’ensemble des causes de décès,3,148,1
CT_DEP_GN_AAAA,Table dépenses de la cartographie des pathologies pour l'année AAAA et l'algorithme N,4,149,1
CT_IDE_GN_AAAA,Table individus de la cartographie des pathologies pour l'année AAAA et l'algorithme N,4,150,1
CT_IND_GN_AAAA,Table pathologies de la cartographie des pathologies pour l'année AAAA et l'algorithme N,4,151,1
CT_RES_GN_AAAA,Informations contextuelles relatives au lieu de résidence des patients de l'année AAAA et l'algorithme N,4,152,1
T_RIPaaC,chainage,8,153,1
T_RIPaaCCAM,Actes CCAM,8,154,1
T_RIPaaCSTC,ACE NIR/date,8,155,1
T_RIPaaE,etablissement,8,156,1
T_RIPaaFA,debut facture,8,157,1
T_RIPaaFB,prestation hospitalière,8,158,1
T_RIPaaFC,honoraire,8,159,1
T_RIPaaFH,medicament,8,160,1
T_RIPaaFI,interruption de sejour,8,161,1
T_RIPaaFL,actes de Biologie,8,162,1
T_RIPaaFM,ccam,8,163,1
T_RIPaaFP,prothese,8,164,1
T_RIPaaISOCONT_CTL,FICHCOMP Fich de contrôle-Contention et Isolement,8,165,1
T_RIPaaR3A,Résumé par acte ambulatoire anonymisé,8,166,1
T_RIPaaR3AD,Diagnostic associé à l'acte,8,167,1
T_RIPaaRSA,Résumé par séquence,8,168,1
T_RIPaaRSAD,Diagnostic associé à la séquence,8,169,1
T_RIPaaS,Synthèse du Séjour de Résumé par séquence anonymisé,8,170,1
T_RIPaaSTC,Prise en charge patient pour etb DG,8,171,1
T_RIPaaSUP_DSC,Table  Tests diagnostiques Covid,8,172,1
T_RIPaaSUP_TIE,Fichier d’information Transports inter-établissements,8,173,1
T_RIPaaSUP_VAC,Table Vaccins,8,174,1
T_RIPaaTP,Fich comp Séjours à Temps Partiel,8,175,1
T_RIPaaTP_CTL,Fich de contrôle - Séjours à Temps Partiel,8,176,1
T_RIPaaTRPT,Fich comp Transports,8,177,1
T_RIPaaTRPT_CTL,Fich de contrôle - Transport,8,178,1
ER_ANO_F,Table des anomalies,2,179,1
ER_ARO_F,"Autre remboursement que Régime Obligatoire : (partie complémentaire CMU-C, FNASS, Alsace Moselle…)",2,180,1
ER_BIO_F,Prestations affinées BIOLOGIE,2,181,1
ER_CAM_F,Codage CCAM,2,182,1
ER_CPT_F,Table des données comptables,2,183,1
ER_DCT_F,DECOMPTES,2,184,1
ER_DTR_F,Prestations affinées TRANSPORT,2,185,1
ER_ETE_F,Informations liées à l'exécution dans un ETABLISSEMENT,2,186,1
ER_INV_F,Pension INVALIDITE,2,187,1
ER_LOT_F,Table des données de LOT,2,188,1
ER_PHA_F,Prestations affinées PHARMACIE,2,189,1
ER_PRS_F,Table principale des PRESTATIONS,2,190,1
ER_RAT_F,"Rente accident du travail, maladie professionnelle",2,191,1
ER_TIP_F,Prestations affinées DISPOSITIF MEDICAL,2,192,1
ER_TRS_F,Table des données détaillées de TRANSPORT,2,193,1
ER_UCD_F,"Prestations Affinées UCD, Pharmacie hospitalière codée et rétrocédée et médicament en sus du GHS",2,194,1
